[gd_scene load_steps=7 format=2]

[ext_resource path="res://Player.gd" type="Script" id=1]
[ext_resource path="res://Cooper Black Regular.ttf" type="DynamicFontData" id=2]

[sub_resource type="ProceduralSky" id=1]
sky_top_color = Color( 0, 0.0196078, 0.243137, 1 )
sky_horizon_color = Color( 0.254902, 0.168627, 0, 1 )
ground_horizon_color = Color( 0.0862745, 0.101961, 0.0705882, 1 )
sun_color = Color( 0.0980392, 0.0980392, 0.0980392, 1 )

[sub_resource type="Environment" id=2]
background_mode = 2
background_sky = SubResource( 1 )
ambient_light_energy = 0.0
ambient_light_sky_contribution = 0.0

[sub_resource type="CapsuleShape" id=3]

[sub_resource type="DynamicFont" id=4]
size = 25
font_data = ExtResource( 2 )

[node name="Player" type="KinematicBody"]
transform = Transform( 1, 0, 0, 0, 1, 0, 0, 0, 1, 0, 1.5059, 0 )
script = ExtResource( 1 )

[node name="Camera" type="Camera" parent="."]
transform = Transform( 1, 0, 0, 0, 1, 0, 0, 0, 1, 0, 1.0365, 0 )
environment = SubResource( 2 )
current = true
far = 1000.0

[node name="SpotLight" type="SpotLight" parent="Camera"]
spot_range = 46.6804
spot_angle = 40.1975

[node name="CollisionShape" type="CollisionShape" parent="."]
transform = Transform( 1, 0, 0, 0, -4.37114e-008, 1, 0, -1, -4.37114e-008, 0, 0, 0 )
shape = SubResource( 3 )

[node name="Label" type="Label" parent="."]
visible = false
anchor_left = 0.5
anchor_top = 0.5
anchor_right = 0.5
anchor_bottom = 0.5
margin_left = -98.5
margin_top = -11.5
margin_right = 98.5
margin_bottom = 11.5
custom_fonts/font = SubResource( 4 )
text = "Left click to pick up"
align = 1
