[gd_scene load_steps=1 format=2]

[ext_resource id=1 path="file1.jpg" type="Texture"]

[ext_resource id=2 path="file2.jpg" type="Texture"]

[sub_resource id=1 type="Shader"]

resource_name = "Shader Nodetree"
code = "shader_type spatial;
render_mode blend_mix, depth_draw_always, cull_back, diffuse_burley, specular_schlick_ggx;

uniform sampler2D texture_0;
uniform sampler2D texture_1: hint_normal;


void dir_space_convert_view_to_world(inout vec3 dir, in mat4 inv_view_mat) {
    dir = normalize(inv_view_mat * vec4(dir, 0.0)).xyz;
}


void dir_space_convert_world_to_view(inout vec3 dir, in mat4 view_mat) {
    dir = normalize(view_mat * vec4(dir, 0.0)).xyz;
}


void node_bsdf_principled(vec4 color, float subsurface, vec4 subsurface_color,
        float metallic, float specular, float roughness, float clearcoat,
        float clearcoat_roughness, float anisotropy, float transmission,
        float IOR, out vec3 albedo, out float sss_strength_out,
        out float metallic_out, out float specular_out,
        out float roughness_out, out float clearcoat_out,
        out float clearcoat_gloss_out, out float anisotropy_out,
        out float transmission_out, out float ior) {
    metallic = clamp(metallic, 0.0, 1.0);
    transmission = clamp(transmission, 0.0, 1.0);

    subsurface = subsurface * (1.0 - metallic);

    albedo = mix(color.rgb, subsurface_color.rgb, subsurface);
    sss_strength_out = subsurface;
    metallic_out = metallic;
    specular_out = pow((IOR - 1.0)/(IOR + 1.0), 2)/0.08;
    roughness_out = roughness;
    clearcoat_out = clearcoat * (1.0 - transmission);
    clearcoat_gloss_out = 1.0 - clearcoat_roughness;
    anisotropy_out = clamp(anisotropy, 0.0, 1.0);
    transmission_out = (1.0 - transmission) * (1.0 - metallic);
    ior = IOR;
}


void node_normal_map_tangent(float strength, vec4 color, vec3 normal,
        vec3 tangent, vec3 binormal, out vec3 out_normal) {
    vec3 signed_color = vec3(2.0, -2.0, 2.0) * (color.xzy - vec3(0.5));
    vec3 tex_normal = signed_color.x * tangent +
                      signed_color.y * binormal +
                      signed_color.z * normal;
    out_normal = strength * tex_normal + (1.0 - strength) * normal;
}


void node_tex_image(vec3 co, sampler2D ima, out vec4 color, out float alpha) {
    color = texture(ima, co.xy);
    alpha = color.a;
}


void space_convert_yup_to_zup(inout vec3 dir) {
    dir = mat3(vec3(1, 0, 0), vec3(0, 0, 1), vec3(0, -1, 0)) * dir;
}


void space_convert_zup_to_yup(inout vec3 dir) {
    dir = mat3(vec3(1, 0, 0), vec3(0, 0, -1), vec3(0, 1, 0)) * dir;
}

void vertex () {
}

void fragment () {
	mat4 INV_VIEW_MAT = inverse(INV_CAMERA_MATRIX);
	
	// node: 'Image Texture'
	// type: 'ShaderNodeTexImage'
	// input sockets handling
	vec3 node0_in0_vector = vec3(0.0, 0.0, 0.0);
	// output sockets definitions
	vec4 node0_out0_color;
	float node0_out1_alpha;
	
	node0_in0_vector = vec3(UV, 0.0);
	node_tex_image(node0_in0_vector, texture_0, node0_out0_color, node0_out1_alpha);
	
	
	// node: 'Image Texture.001'
	// type: 'ShaderNodeTexImage'
	// input sockets handling
	vec3 node1_in0_vector = vec3(0.0, 0.0, 0.0);
	// output sockets definitions
	vec4 node1_out0_color;
	float node1_out1_alpha;
	
	node1_in0_vector = vec3(UV, 0.0);
	node_tex_image(node1_in0_vector, texture_1, node1_out0_color, node1_out1_alpha);
	
	
	// node: 'Normal Map'
	// type: 'ShaderNodeNormalMap'
	// input sockets handling
	float node2_in0_strength = float(0.001680201618000865);
	vec4 node2_in1_color = node1_out0_color;
	// output sockets definitions
	vec3 node2_out0_normal;
	
	node_normal_map_tangent(node2_in0_strength, node2_in1_color, NORMAL, TANGENT,
		BINORMAL, node2_out0_normal);
	dir_space_convert_view_to_world(node2_out0_normal, INV_VIEW_MAT);
	space_convert_yup_to_zup(node2_out0_normal);
	
	
	// node: 'Principled BSDF'
	// type: 'ShaderNodeBsdfPrincipled'
	// input sockets handling
	vec4 node3_in0_basecolor = node0_out0_color;
	float node3_in1_subsurface = float(0.0);
	vec3 node3_in2_subsurfaceradius = vec3(1.0, 0.20000000298023224,
		0.10000000149011612);
	vec4 node3_in3_subsurfacecolor = vec4(0.800000011920929, 0.800000011920929,
		0.800000011920929, 1.0);
	float node3_in4_metallic = float(0.0);
	float node3_in5_specular = float(0.5);
	float node3_in6_speculartint = float(0.0);
	float node3_in7_roughness = float(0.5527864098548889);
	float node3_in8_anisotropic = float(0.0);
	float node3_in9_anisotropicrotation = float(0.0);
	float node3_in10_sheen = float(0.0);
	float node3_in11_sheentint = float(0.5);
	float node3_in12_clearcoat = float(0.0);
	float node3_in13_clearcoatroughness = float(0.029999999329447746);
	float node3_in14_ior = float(1.4500000476837158);
	float node3_in15_transmission = float(0.0);
	float node3_in16_transmissionroughness = float(0.0);
	vec4 node3_in17_emission = vec4(0.0, 0.0, 0.0, 1.0);
	float node3_in18_alpha = float(1.0);
	vec3 node3_in19_normal = node2_out0_normal;
	vec3 node3_in20_clearcoatnormal = vec3(0.0, 0.0, 0.0);
	vec3 node3_in21_tangent = TANGENT;
	// output sockets definitions
	vec3 node3_bsdf_out0_albedo;
	float node3_bsdf_out1_sss_strength;
	float node3_bsdf_out3_specular;
	float node3_bsdf_out2_metallic;
	float node3_bsdf_out4_roughness;
	float node3_bsdf_out5_clearcoat;
	float node3_bsdf_out6_clearcoat_gloss;
	float node3_bsdf_out7_anisotropy;
	float node3_bsdf_out8_transmission;
	float node3_bsdf_out9_ior;
	
	node_bsdf_principled(node3_in0_basecolor, node3_in1_subsurface,
		node3_in3_subsurfacecolor, node3_in4_metallic, node3_in5_specular,
		node3_in7_roughness, node3_in12_clearcoat, node3_in13_clearcoatroughness,
		node3_in8_anisotropic, node3_in15_transmission, node3_in14_ior,
		node3_bsdf_out0_albedo, node3_bsdf_out1_sss_strength, node3_bsdf_out2_metallic,
		node3_bsdf_out3_specular, node3_bsdf_out4_roughness, node3_bsdf_out5_clearcoat,
		node3_bsdf_out6_clearcoat_gloss, node3_bsdf_out7_anisotropy,
		node3_bsdf_out8_transmission, node3_bsdf_out9_ior);
	space_convert_zup_to_yup(node3_in19_normal);
	dir_space_convert_world_to_view(node3_in19_normal, INV_CAMERA_MATRIX);
	
	
	ALBEDO = node3_bsdf_out0_albedo;
	SSS_STRENGTH = node3_bsdf_out1_sss_strength;
	SPECULAR = node3_bsdf_out3_specular;
	METALLIC = node3_bsdf_out2_metallic;
	ROUGHNESS = node3_bsdf_out4_roughness;
	CLEARCOAT = node3_bsdf_out5_clearcoat;
	CLEARCOAT_GLOSS = node3_bsdf_out6_clearcoat_gloss;
	NORMAL = node3_in19_normal;
	// uncomment it when you need it
	// TRANSMISSION = vec3(1.0, 1.0, 1.0) * node3_bsdf_out8_transmission;
	// uncomment it when you are modifing TANGENT
	// TANGENT = normalize(cross(cross(node3_in21_tangent, NORMAL), NORMAL));
	// BINORMAL = cross(TANGENT, NORMAL);
	// uncomment it when you have tangent(UV) set
	// ANISOTROPY = node3_bsdf_out7_anisotropy;
}
"

[sub_resource id=2 type="ShaderMaterial"]

resource_name = ""
shader = SubResource(1)
shader_param/texture_0 = ExtResource(1)
shader_param/texture_1 = ExtResource(2)

[sub_resource id=3 type="ArrayMesh"]

resource_name = "Mesh"
surfaces/0 = {
	"material":SubResource(2),
	"primitive":4,
	"arrays":[
		Vector3Array(1.97121, -8.05498, -8.91781, -1.99208, -8.05499, -1.35265, -2.02384, -8.05499, -8.91544, 6.86406, 29.1282, -8.75309, 7.07951, 29.1724, -8.90738, 6.86406, 29.1724, -8.90738, 6.86406, 29.1724, -8.90738, 7.07951, 27.4602, -9.39836, 6.86406, 27.4602, -9.39836, 2.04173, 27.439, -8.44093, 1.82158, 28.8979, -8.61339, 1.82158, 27.439, -8.44093, 1.82158, 27.4159, -9.24407, 1.82158, 27.439, -8.44093, 1.82158, 28.8979, -8.61339, 2.04173, 27.4159, -9.24407, 6.86406, 29.1282, -8.75309, 2.04173, 29.1282, -8.75309, 6.86406, 27.439, -8.44093, 7.07951, 28.8979, -8.61338, 6.86406, 28.8979, -8.61338, 7.07951, 27.4159, -9.24407, 7.07951, 27.439, -8.44093, 6.86406, 27.439, -8.44093, 2.04173, 29.1282, -8.75309, 2.04173, 27.439, -8.44093, 2.04173, 27.4159, -9.24407, 1.82158, 29.1282, -8.75309, 2.04173, 28.8979, -8.61339, 2.04173, 29.1282, -8.75309, 6.86406, 27.4159, -9.24407, 6.86406, 28.8979, -8.61338, 6.86406, 29.1282, -8.75309, 7.07951, 27.4602, -9.39836, 7.07951, 29.1724, -8.90738, 7.07951, 28.8979, -8.61338, 7.07951, 28.8979, -8.61338, 7.07951, 29.1282, -8.75309, 6.86406, 27.4602, -9.39836, 7.07951, 27.4602, -9.39836, 6.86406, 27.4159, -9.24407, 2.04173, 27.439, -8.44093, 1.82158, 27.439, -8.44093, 1.82158, 27.4159, -9.24407, 2.2294, 27.2348, -8.95092, 6.80127, 27.2348, -0.0837778, 6.7575, 27.2348, -8.95099, -1.83764, -19.5032, -0.718216, -1.8417, -19.5032, -0.0837776, -9.56216, -19.5032, -0.0837776, 9.58438, -19.5032, -1.35265, 1.80681, -19.5032, -1.35265, 1.97124, -8.25819, -1.35265, 9.58438, -8.25819, -0.0837776, 9.58438, -19.5032, -1.35265, 9.58438, -8.25819, -1.35265, 9.58438, -8.25819, -0.0837776, 6.80127, 27.4689, -0.0837786, 2.20964, 27.4689, -0.0837786, -9.56216, -8.25819, -1.35265, -9.56216, -19.5032, -0.0837776, -9.56216, -8.25819, -0.0837776, 1.80773, -19.5032, -0.0837776, 9.58438, -19.5032, -0.0837776, 9.58438, -8.25819, -0.0837776, 9.58438, -8.25819, -0.0837776, -9.56216, -8.25819, -1.35265, -9.56216, -8.25819, -0.0837776, 9.58438, -19.5032, -0.0837776, 1.80773, -19.5032, -0.0837776, 1.80727, -19.5032, -0.718216, 1.80727, -21.1915, -0.718216, -1.8417, -21.1915, -0.0837776, -1.83764, -21.1915, -0.718216, 1.80681, -20.3495, -1.35265, -1.83764, -20.3495, -0.718216, -1.83359, -20.3495, -1.35265, 1.80727, -19.5032, -0.718216, -1.83764, -21.1915, -0.718216, -1.83764, -19.5032, -0.718216, 1.80773, -19.5032, -0.0837776, 1.80727, -21.1915, -0.718216, 1.80727, -19.5032, -0.718216, -1.8417, -19.5032, -0.0837776, 1.80773, -21.1915, -0.0837776, -1.83764, -19.5032, -0.718216, -1.8417, -21.1915, -0.0837776, -1.8417, -19.5032, -0.0837776, -1.83359, -20.3495, -1.35265, -1.83359, -19.5032, -1.35265, 1.80727, -19.5032, -0.718216, 1.80681, -20.3495, -1.35265, 1.80681, -19.5032, -1.35265, -1.83764, -19.5032, -0.718216, 1.80727, -20.3495, -0.718216, 1.80727, -19.5032, -0.718216, -1.83359, -19.5032, -1.35265, -1.83764, -20.3495, -0.718216, -1.83764, -19.5032, -0.718216, -0.28755, -9.866, -21.099, -12.0567, 29.0767, -10.6756, 0.011112, 29.0767, -21.3668, -11.6971, -9.866, -10.4363, -12.0567, 29.0767, -10.6756, -12.0567, -9.866, -10.6756, 0.011112, -9.866, -21.3668, 0.011112, 29.0767, -21.3668, 0.304019, 29.0767, -21.1041, 12.2229, -9.866, -10.7186, 11.8559, -9.866, -10.4273, -0.00575486, -9.866, -20.8444, -12.0567, 29.0767, -10.6756, -11.6963, 29.0767, -10.4373, -0.00486464, 29.0767, -20.8256, 12.2229, 29.0767, -10.7186, 0.304019, 29.0767, -21.1041, -12.0567, -9.866, -10.6756, -0.28755, -9.866, -21.099, 11.8559, -9.866, -10.4273, 12.2229, 29.0767, -10.7186, 11.8554, 29.0767, -10.4268, -0.00486464, 29.0767, -20.8256, 11.8559, -9.866, -10.4273, 11.8554, 29.0767, -10.4268, -0.00486464, 29.0767, -20.8256, -11.6971, -9.866, -10.4363, -0.00575486, -9.866, -20.8444, -8.1136, -14.4609, -1.17809, -8.31456, -14.6904, -11.5307, -8.31456, -14.6904, -1.17809, -7.72319, -14.3833, -1.17809, -8.1136, -14.4609, -11.5307, -7.37095, -14.5902, -1.17809, -7.72319, -14.3833, -11.5307, -7.31456, -14.9948, -1.17809, -7.37095, -14.5902, -11.5307, -7.37095, -14.5902, -1.17809, -7.52474, -15.3422, -1.17809, -7.31456, -14.9948, -11.5307, -7.92612, -15.4034, -1.17809, -7.52474, -15.3422, -11.5307, -7.52474, -15.3422, -1.17809, -8.29252, -15.1728, -1.17809, -7.92612, -15.4034, -11.5307, -8.31456, -14.6904, -1.17809, -8.29252, -15.1728, -11.5307, -8.29252, -15.1728, -1.17809, -8.1136, -14.4609, -1.17809, -7.31456, -14.9948, -1.17809, -7.72319, -14.3833, -1.17809, -7.31456, -14.9948, -11.5307, -7.92612, -15.4034, -11.5307, -8.1136, -14.4609, -11.5307, -9.5933, -18.1918, -10.92, 9.73587, -18.2419, -11.3187, 9.73587, -18.1918, -10.92, -9.5933, -18.2419, -11.3187, 9.73264, -8.23252, -12.7882, 9.73587, -18.2419, -11.3187, -9.59653, -8.23252, -12.7882, 9.73264, -8.18241, -12.3895, 9.73264, -8.23252, -12.7882, -9.59653, -8.18241, -12.3895, 9.73587, -18.1918, -10.92, 9.73264, -8.18241, -12.3895, -9.59653, -8.18241, -12.3895, -9.5933, -18.2419, -11.3187, -9.5933, -18.1918, -10.92, 9.73587, -18.1918, -10.92, 9.73264, -8.23252, -12.7882, 9.73264, -8.18241, -12.3895, 7.39071, -14.4609, -1.17809, 7.18974, -14.6904, -11.5307, 7.18974, -14.6904, -1.17809, 7.78112, -14.3833, -1.17809, 7.39071, -14.4609, -11.5307, 8.13335, -14.5902, -1.17809, 7.78112, -14.3833, -11.5308, 8.18975, -14.9948, -1.17809, 8.13335, -14.5902, -11.5307, 8.13335, -14.5902, -1.17809, 7.97956, -15.3422, -1.17809, 8.18975, -14.9948, -11.5308, 7.57819, -15.4034, -1.17809, 7.97956, -15.3422, -11.5308, 7.97956, -15.3422, -1.17809, 7.21178, -15.1728, -1.17809, 7.57819, -15.4034, -11.5308, 7.18974, -14.6904, -1.17809, 7.21178, -15.1728, -11.5308, 7.21178, -15.1728, -1.17809, 7.39071, -14.4609, -1.17809, 8.18975, -14.9948, -1.17809, 7.78112, -14.3833, -1.17809, 8.18975, -14.9948, -11.5308, 7.57819, -15.4034, -11.5308, 7.39071, -14.4609, -11.5307, 4.74416, -8.25819, -16.8228, 1.14352, -8.25819, -18.7262, 2.61971, -8.25819, -18.7278, -1.46217, -8.25819, -16.795, -2.60391, -8.25819, -18.7221, -1.4614, -8.25819, -18.7241, 0.0111084, -8.25819, -21.067, 1.14352, -8.25819, -18.7262, -1.4614, -8.25819, -18.7241, -2.02384, -8.25819, -8.91544, -1.99208, -8.05499, -1.35265, -1.99208, -8.25819, -1.35265, -1.99208, -8.25819, -1.35265, 1.97124, -8.05499, -1.35265, 1.97124, -8.25819, -1.35265, 1.97124, -8.25819, -1.35265, 1.97121, -8.05499, -8.91781, 1.97121, -8.25819, -8.91781, 1.97121, -8.25819, -8.91781, -2.02384, -8.05499, -8.91544, -2.02384, -8.25819, -8.91544, -1.99209, -8.25819, -1.35265, -9.56216, -8.25819, -1.35265, -9.56216, -8.25819, -2.96736, 9.58438, -8.25819, -12.4824, 9.58438, -8.25819, -8.92232, 1.97121, -8.25819, -8.91781, 9.58438, -8.25819, -2.96709, 9.58438, -8.25819, -1.35265, 1.97124, -8.25819, -1.35265, 1.11922, -8.25819, -16.8053, -9.56216, -8.25819, -12.4824, -1.46217, -8.25819, -16.795, 1.16639, -8.23918, -16.77, -1.50944, -8.23918, -18.7596, 1.19159, -8.23918, -18.7618, 1.11386, 27.4689, -18.7407, 0.0111084, 27.4689, -21.067, -1.46468, 27.4689, -18.7441, -9.56216, 27.4689, -12.4824, -9.56216, 27.4689, -8.95075, 2.2294, 27.4689, -8.95092, 6.80127, 27.4689, -0.0837786, 9.58438, 27.4689, -0.0837786, 9.58438, 27.4689, -2.93137, -9.56216, 27.4689, -2.93023, -9.56216, 27.4689, -0.0837796, 2.20964, 27.4689, -0.0837791, 2.2294, 27.4689, -8.95092, 6.7575, 27.2348, -8.95099, 6.7575, 27.4689, -8.95099, 2.20964, 27.4689, -0.0837788, 2.2294, 27.2348, -8.95092, 2.2294, 27.4689, -8.95092, 6.7575, 27.4689, -8.95099, 6.80127, 27.2348, -0.0837782, 6.80127, 27.4689, -0.0837789, 1.12864, 27.4689, -16.9559, 2.60751, 27.4689, -18.7388, 1.11386, 27.4689, -18.7407, -9.56216, 27.4689, -12.4824, 1.12864, 27.4689, -16.9559, -1.47953, 27.4689, -16.9543, -4.57739, 27.4689, -16.9524, -1.46468, 27.4689, -18.7441, -2.57768, 27.4689, -18.7456, 6.80127, 28.6357, -0.0837786, 2.20964, 28.6357, -0.630622, 2.20964, 28.6357, -0.0837786, 6.80127, 27.4689, -0.0837786, 2.20965, 28.6357, -0.0837786, 2.20964, 27.4689, -0.0837786, 6.80127, 27.4689, -0.630622, 6.80127, 28.6357, -0.0837786, 6.80127, 27.4689, -0.0837786, 2.20964, 27.4689, -0.630622, 6.80127, 28.6357, -0.630621, 6.80127, 27.4689, -0.630621, 2.20964, 27.4689, -0.0837786, 2.20965, 28.6357, -0.630622, 2.20964, 27.4689, -0.630622, -1.53481, 27.4279, -16.9266, 1.13904, 27.4279, -18.7684, -1.51949, 27.4279, -18.7719, 9.58438, 27.4689, -8.95101, 9.58438, 17.5463, -2.94129, 9.58438, 17.5071, -8.94301, 9.58438, 5.54225, -8.9334, 9.58438, 1.50178, -8.93016, 9.58438, -8.25819, -12.4824, 9.58438, 17.5463, -2.94129, 9.58438, 27.4689, -2.93137, 9.58438, 27.4689, -0.0837787, 9.58438, 1.50178, -8.93016, 9.58438, -8.25819, -2.96708, 9.58438, -8.25819, -8.92232, 9.58438, 13.5059, -8.9398, 9.58438, 5.58118, -2.95325, 9.58438, 5.54225, -8.9334, 9.58438, 5.54225, -8.9334, 9.26428, 1.50178, -8.93016, 9.58438, 1.50178, -8.93016, 9.58438, 5.58119, -2.95325, 9.26428, 5.54225, -8.9334, 9.58438, 5.54225, -8.9334, 9.58438, 1.54096, -2.95729, 9.26428, 5.58118, -2.95325, 9.58438, 5.58118, -2.95325, 9.58438, 1.50178, -8.93016, 9.26428, 1.54096, -2.95729, 9.58438, 1.54096, -2.95729, 9.58438, 17.5071, -8.94301, 9.26428, 13.5059, -8.9398, 9.58438, 13.5059, -8.9398, 9.58438, 17.5463, -2.94129, 9.26428, 17.5071, -8.94301, 9.58438, 17.5071, -8.94301, 9.58438, 13.5448, -2.94529, 9.26428, 17.5463, -2.94129, 9.58438, 17.5463, -2.94129, 9.58438, 13.5059, -8.9398, 9.26428, 13.5448, -2.94529, 9.58438, 13.5448, -2.94529, 9.49561, 5.54225, -8.9334, 9.49561, 1.54096, -2.95729, 9.49561, 1.50178, -8.93016, 9.49561, 17.5071, -8.94301, 9.49561, 13.5448, -2.94529, 9.49561, 13.5059, -8.9398, -9.56216, -8.25819, -12.4824, -9.56216, 1.49439, -8.92183, -9.56216, 5.55287, -8.92635, -9.56216, -8.25819, -1.35265, -9.56216, -8.25819, -0.0837776, -9.56216, 1.5343, -2.95718, -9.56216, -8.25819, -8.91097, -9.56216, 1.5343, -2.95718, -9.56216, 1.49438, -8.92183, -9.56216, 17.5089, -8.93966, -9.56216, 27.4689, -2.93023, -9.56216, 27.4689, -8.95075, -9.56216, 5.55287, -8.92635, -9.56216, 13.511, -2.94473, -9.56216, 13.5108, -8.93521, -9.56216, 13.5108, -8.93521, -9.20569, 17.5089, -8.93966, -9.56216, 17.5089, -8.93966, -9.56216, 13.511, -2.94473, -9.20569, 13.5108, -8.93521, -9.56216, 13.5108, -8.93521, -9.56216, 17.5087, -2.94058, -9.20569, 13.511, -2.94473, -9.56216, 13.511, -2.94473, -9.56216, 17.5089, -8.93966, -9.20569, 17.5087, -2.94058, -9.56216, 17.5087, -2.94058, -9.56216, 1.49438, -8.92183, -9.20569, 5.55287, -8.92635, -9.56216, 5.55287, -8.92635, -9.56216, 1.5343, -2.95718, -9.20569, 1.49438, -8.92183, -9.56216, 1.49438, -8.92183, -9.56216, 5.59243, -2.95296, -9.20569, 1.5343, -2.95718, -9.56216, 1.5343, -2.95718, -9.56216, 5.55287, -8.92635, -9.20569, 5.59243, -2.95296, -9.56216, 5.59243, -2.95296, -9.52548, 13.5108, -8.93521, -9.52548, 17.5087, -2.94058, -9.52548, 17.5089, -8.93966, -9.52548, 1.49438, -8.92183, -9.52548, 5.59243, -2.95296, -9.52548, 5.55287, -8.92635, 1.97124, -8.05499, -1.35265, 2.04173, 29.1724, -8.90738, 1.82158, 29.1724, -8.90738, 2.04173, 27.4602, -9.39836, 1.82158, 27.4602, -9.39836, 2.04173, 29.1724, -8.90738, 1.82158, 29.1724, -8.90738, 7.07951, 29.1724, -8.90738, 2.04173, 28.8979, -8.61339, 1.82158, 29.1282, -8.75309, 1.82158, 29.1724, -8.90738, 1.82158, 27.4602, -9.39836, 6.86406, 27.4159, -9.24407, 7.07951, 27.439, -8.44093, 6.86406, 27.4159, -9.24407, 7.07951, 27.4602, -9.39836, 2.04173, 28.8979, -8.61339, 1.82158, 28.8979, -8.61339, 6.86406, 27.439, -8.44093, 7.07951, 29.1282, -8.75309, 7.07951, 27.439, -8.44093, 7.07951, 27.4159, -9.24407, 6.86406, 28.8979, -8.61338, 2.04173, 27.4159, -9.24407, 2.04173, 27.4602, -9.39836, 1.82158, 27.4602, -9.39836, 1.82158, 27.4602, -9.39836, 2.04173, 27.4159, -9.24407, 2.20964, 27.2348, -0.0837783, -9.56216, -19.5032, -1.35265, -1.83359, -19.5032, -1.35265, -9.56216, -19.5032, -1.35265, -9.56216, -8.25819, -1.35265, -1.99208, -8.25819, -1.35265, 9.58438, -8.25819, -1.35265, 9.58438, -19.5032, -0.0837776, -9.56216, 27.4689, -0.0837786, -9.56216, -8.25819, -0.0837776, 9.58438, 27.4689, -0.0837786, -9.56216, -19.5032, -1.35265, -9.56216, -8.25819, -0.0837776, -9.56216, -19.5032, -0.0837776, 9.58438, -8.25819, -1.35265, 1.80681, -19.5032, -1.35265, 9.58438, -19.5032, -1.35265, 1.80773, -21.1915, -0.0837776, 1.80727, -20.3495, -0.718216, 1.80727, -21.1915, -0.718216, 1.80773, -21.1915, -0.0837776, -1.8417, -21.1915, -0.0837776, -1.83764, -21.1915, -0.718216, 1.80681, -20.3495, -1.35265, 1.80727, -20.3495, -0.718216, -1.83764, -20.3495, -0.718216, -1.83359, -20.3495, -1.35265, 0.011112, -9.866, -21.3668, -12.0567, -9.866, -10.6756, -11.6963, 29.0767, -10.4373, 12.2229, 29.0767, -10.7186, 12.2229, -9.866, -10.7186, 0.011112, -9.866, -21.3668, 0.011112, 29.0767, -21.3668, 11.8554, 29.0767, -10.4268, -11.6971, -9.866, -10.4363, 12.2229, -9.866, -10.7186, -0.00575486, -9.866, -20.8444, -11.6963, 29.0767, -10.4373, -7.37095, -14.5902, -11.5307, -7.52474, -15.3422, -11.5307, -8.29252, -15.1728, -11.5307, -8.31456, -14.6904, -11.5307, -8.31456, -14.6904, -1.17809, -7.92612, -15.4034, -1.17809, -8.29252, -15.1728, -1.17809, -7.52474, -15.3422, -1.17809, -7.37095, -14.5902, -1.17809, -8.29252, -15.1728, -11.5307, -8.31456, -14.6904, -11.5307, -7.72319, -14.3833, -11.5307, -7.37095, -14.5902, -11.5307, -7.52474, -15.3422, -11.5307, -9.5933, -18.2419, -11.3187, -9.59653, -8.23252, -12.7882, -9.59653, -8.18241, -12.3895, -9.5933, -18.1918, -10.92, -9.59653, -8.23252, -12.7882, 9.73587, -18.2419, -11.3187, 8.13335, -14.5902, -11.5307, 7.97956, -15.3422, -11.5308, 7.21178, -15.1728, -11.5308, 7.18974, -14.6904, -11.5307, 7.18974, -14.6904, -1.17809, 7.57819, -15.4034, -1.17809, 7.21178, -15.1728, -1.17809, 7.97956, -15.3422, -1.17809, 8.13335, -14.5902, -1.17809, 7.21178, -15.1728, -11.5308, 7.18974, -14.6904, -11.5307, 7.78112, -14.3833, -11.5308, 8.13335, -14.5902, -11.5307, 7.97956, -15.3422, -11.5308, 1.11922, -8.25819, -16.8053, -4.77552, -8.25819, -16.7747, 2.61971, -8.25819, -18.7278, -2.60391, -8.25819, -18.7221, -2.02384, -8.05499, -8.91544, -1.99208, -8.05499, -1.35265, 1.97124, -8.05499, -1.35265, 1.97121, -8.05499, -8.91781, -9.56216, -8.25819, -8.91097, -2.02384, -8.25819, -8.91544, -9.56216, -8.25819, -8.91097, -9.56216, -8.25819, -12.4824, -2.02384, -8.25819, -8.91544, 1.97121, -8.25819, -8.91781, 9.58438, -8.25819, -8.92232, 4.74416, -8.25819, -16.8228, 9.58438, -8.25819, -12.4824, -4.77552, -8.25819, -16.7747, -1.51023, -8.23918, -16.7594, 2.60751, 27.4689, -18.7388, -2.57768, 27.4689, -18.7456, 9.58438, 27.4689, -8.95101, 9.58438, 27.4689, -12.4824, 6.7575, 27.4689, -8.95099, 9.58438, 27.4689, -8.95101, 6.7575, 27.4689, -8.95099, 2.2294, 27.4689, -8.95092, -9.56216, 27.4689, -8.95075, 2.2294, 27.2348, -8.95092, 2.20964, 27.2348, -0.0837786, 6.7575, 27.2348, -8.95099, 4.59332, 27.4689, -16.9581, -4.57739, 27.4689, -16.9524, 9.58438, 27.4689, -12.4824, 4.59332, 27.4689, -16.9581, -1.47953, 27.4689, -16.9543, 6.80127, 28.6357, -0.630622, 6.80127, 28.6357, -0.0837786, 6.80127, 28.6357, -0.630621, 2.20965, 28.6357, -0.630622, 2.20965, 28.6357, -0.0837786, 1.15428, 27.4279, -16.9282, 9.58438, 27.4689, -2.93137, 9.58438, -8.25819, -8.92232, 9.58438, 27.4689, -12.4824, 9.58438, 13.5059, -8.9398, 9.58438, 27.4689, -8.95101, 9.58438, 17.5071, -8.94301, 9.58438, -8.25819, -1.35265, 9.58438, -8.25819, -2.96709, 9.58438, 1.54096, -2.95729, 9.58438, 5.58118, -2.95325, 9.58438, 13.5448, -2.94529, 9.58438, -8.25819, -0.0837775, 9.58438, 1.54096, -2.95729, 9.58438, 13.5448, -2.94529, 9.26428, 5.54225, -8.9334, 9.26428, 5.58119, -2.95325, 9.26428, 1.54096, -2.95729, 9.26428, 1.50178, -8.93016, 9.26428, 17.5071, -8.94301, 9.26428, 17.5463, -2.94129, 9.26428, 13.5448, -2.94529, 9.26428, 13.5059, -8.9398, 9.49561, 5.58119, -2.95325, 9.49561, 17.5463, -2.94129, -9.56216, 27.4689, -8.95075, -9.56216, 27.4689, -12.4824, -9.56216, 17.5089, -8.93966, -9.56216, 13.5108, -8.93521, -9.56216, -8.25819, -8.91097, -9.56216, 27.4689, -0.0837786, -9.56216, 27.4689, -2.93023, -9.56216, 17.5087, -2.94058, -9.56216, 13.511, -2.94473, -9.56216, 5.59243, -2.95296, -9.56216, -8.25819, -2.96736, -9.56216, -8.25819, -2.96736, -9.56216, 17.5087, -2.94058, -9.56216, 5.59243, -2.95296, -9.20569, 13.5108, -8.93521, -9.20569, 13.511, -2.94473, -9.20569, 17.5087, -2.94058, -9.20569, 17.5089, -8.93966, -9.20569, 1.49438, -8.92183, -9.20569, 1.5343, -2.95718, -9.20569, 5.59243, -2.95296, -9.20569, 5.55287, -8.92635, -9.52548, 13.511, -2.94473, -9.52548, 1.5343, -2.95718),
		Vector3Array(1.39926e-06, -1.0, 5.67122e-07, 6.24343e-07, -1.0, 1.83233e-07, 2.02011e-06, -1.0, 8.74686e-07, -5.27668e-07, 0.793907, 0.608039, 0.0, 0.96126, 0.275643, 0.0, 0.961261, 0.275641, 0.0, 0.275637, -0.961262, 0.0, 0.275638, -0.961262, 0.0, 0.275638, -0.961262, 0.0, 0.117394, 0.993086, 0.0, 0.117394, 0.993085, 0.0, 0.117394, 0.993085, -1.0, 2.57214e-08, -1.11108e-06, -1.0, 6.39508e-08, 0.0, -1.0, 1.22535e-08, -6.67026e-08, 0.0, -0.275638, 0.961262, 0.0, -0.275637, 0.961262, 0.0, -0.275638, 0.961262, 0.0, 0.117394, 0.993085, 0.0, 0.117393, 0.993086, 0.0, 0.117393, 0.993086, 0.0, -0.992167, -0.12492, 0.0, -0.999586, 0.0287598, 0.0, -0.999586, 0.0287598, 1.0, 0.0, 4.89761e-08, 1.0, 0.0, 8.357e-08, 1.0, 0.0, 8.74082e-08, 0.0, 0.794632, 0.607091, 0.0, 0.518645, 0.85499, 1.55209e-09, 0.794167, 0.607699, -1.0, -4.58407e-07, -5.93811e-07, -1.0, 9.49675e-07, -4.92409e-06, -1.0, 1.32919e-06, -6.09122e-06, 1.0, 3.90027e-07, -5.814e-06, 1.0, -2.01943e-06, 4.34351e-07, 1.0, -8.53939e-07, 1.84134e-06, 0.0, 0.518655, 0.854984, 0.0, 0.794636, 0.607086, 0.0, -0.96126, -0.275643, 0.0, -0.96126, -0.275643, 0.0, -0.96126, -0.275643, 0.0, -0.999587, 0.028755, 0.0, -0.999587, 0.028755, 0.0, -0.992167, -0.124922, -1.2834e-06, 1.0, -3.63919e-07, -9.75795e-07, 1.0, -2.80488e-07, -1.52012e-06, 1.0, -4.28124e-07, 0.0, -1.0, 0.0, 0.0, -1.0, 0.0, 0.0, -1.0, 0.0, 0.0, -3.38645e-09, -1.0, 0.0, -2.57336e-09, -1.0, 0.0, -6.35805e-09, -1.0, 1.0, 0.0, 0.0, 1.0, 0.0, 0.0, 1.0, 0.0, 0.0, 0.0, 2.68044e-08, 1.0, 0.0, 2.65959e-08, 1.0, 0.0, 2.66239e-08, 1.0, -0.707124, 0.70709, 0.000237259, -1.0, 0.0, 0.0, -0.707124, 0.70709, -3.39386e-05, 0.0, -1.64019e-10, 1.0, 0.0, 0.0, 1.0, 0.0, -3.40414e-10, 1.0, -2.42701e-09, 1.0, 0.0, -0.707124, 0.70709, 3.39403e-05, -0.707124, 0.70709, -0.00023727, 0.0, -1.0, 0.0, 0.0, -1.0, 0.0, 0.0, -1.0, 0.0, 0.0, -1.0, 0.0, 0.0, -1.0, 0.0, 0.0, -1.0, 0.0, 0.0, -1.0, 0.0, 0.0, -1.0, 0.0, 0.0, -1.0, 0.0, 0.0, 0.0, -1.0, 0.0, 0.0, -1.0, 0.0, 0.0, -1.0, 1.0, 0.0, -0.00072329, 1.0, 0.0, -0.000723049, 1.0, 0.0, -0.000723392, 0.0, 0.0, 1.0, 0.0, 0.0, 1.0, -0.99998, 0.0, -0.00639308, -0.99998, 0.0, -0.00639356, -0.99998, 0.0, -0.00639288, 0.0, 0.0, -1.0, -5.09536e-09, -9.06248e-10, -1.0, 1.0, 0.0, -0.000723038, 1.0, 0.0, -0.000723118, 1.0, 0.0, -0.000722856, 0.0, 0.0, 1.0, 0.0, 0.0, 1.0, 0.0, 0.0, 1.0, -0.99998, 0.0, -0.00639369, -0.99998, 0.0, -0.00639369, -0.99998, 0.0, -0.00639369, -0.665314, -7.77833e-06, -0.746564, -0.663094, -4.68717e-05, -0.748536, -0.663152, -6.16149e-05, -0.748485, -0.553928, 2.34402e-07, 0.832565, -0.551466, 3.29775e-05, 0.834197, -0.553945, 0.0, 0.832553, 0.657273, 0.000139526, -0.753653, 0.667617, 0.0, -0.744505, 0.662296, 1.76894e-05, -0.749243, -4.27472e-08, -1.0, 0.0, 0.0, -1.0, 0.0, -1.13098e-06, -1.0, 0.0, 0.0, 1.0, 0.0, 0.0, 1.0, 0.0, -2.06311e-06, 1.0, 0.0, 0.0, 1.0, 0.0, -5.44072e-06, 1.0, 0.0, -7.1565e-08, -1.0, 0.0, 0.0, -1.0, 0.0, 0.621615, -1.18089e-08, 0.783323, 0.621714, -1.52762e-06, 0.783244, 0.621715, -1.53941e-06, 0.783244, -0.659411, -9.93978e-05, 0.751782, -0.659725, -0.000268102, 0.751508, -0.659261, -1.82745e-05, 0.751914, 0.664391, -8.68874e-05, 0.747385, 0.664757, -0.00028405, 0.747059, 0.664931, -0.000377383, 0.746905, -0.500328, 0.865836, 0.0, -0.943828, 0.330436, 0.0, -0.943829, 0.330435, 0.0, 0.166637, 0.986018, 0.0, -0.500328, 0.865836, 0.0, 0.831469, 0.555572, 0.0, 0.166637, 0.986018, 0.0, 0.979502, -0.201434, 0.0, 0.831469, 0.555571, 0.0, 0.831469, 0.555572, 0.0, 0.555569, -0.83147, 0.0, 0.979502, -0.201434, 0.0, -0.203759, -0.979021, 0.0, 0.555569, -0.83147, 0.0, 0.555569, -0.83147, 0.0, -0.86416, -0.503217, 0.0, -0.203756, -0.979022, 0.0, -0.943829, 0.330435, 0.0, -0.864159, -0.503219, 0.0, -0.86416, -0.503217, 0.0, 0.0, 9.44226e-08, 1.0, 0.0, -8.34651e-08, 1.0, 0.0, -8.50183e-08, 1.0, -1.07915e-06, -3.93872e-07, -1.0, -1.69745e-07, -2.93835e-06, -1.0, 6.95058e-07, 2.18787e-06, -1.0, 0.0, -0.992193, 0.124712, 0.0, -0.992193, 0.124712, 0.0, -0.992193, 0.124712, 0.0, -0.145253, -0.989395, 0.0, -0.145253, -0.989395, 0.0, -0.145253, -0.989395, 0.0, 0.992193, -0.124712, 0.0, 0.992193, -0.124712, 0.0, 0.992193, -0.124712, 0.0, 0.145253, 0.989394, 0.0, 0.145253, 0.989395, 0.0, 0.145253, 0.989395, -1.0, -0.000316765, 3.7634e-05, -1.0, -0.000316765, 4.1159e-05, -1.0, -0.000316765, 4.12516e-05, 1.0, 0.000316859, -4.12674e-05, 1.0, 0.000316858, -4.02238e-05, 1.0, 0.000316858, -4.01957e-05, -0.500328, 0.865836, 0.0, -0.943829, 0.330436, 0.0, -0.943829, 0.330435, 0.0, 0.16664, 0.986018, 0.0, -0.500329, 0.865835, 0.0, 0.83147, 0.55557, 0.0, 0.166634, 0.986019, 0.0, 0.979502, -0.201436, 0.0, 0.831468, 0.555572, 0.0, 0.83147, 0.55557, 0.0, 0.555568, -0.831471, 0.0, 0.979502, -0.201433, 0.0, -0.203759, -0.979021, 0.0, 0.555571, -0.831469, 0.0, 0.555568, -0.831471, 0.0, -0.86416, -0.503217, 0.0, -0.203756, -0.979022, 0.0, -0.943829, 0.330435, 0.0, -0.864158, -0.50322, 0.0, -0.86416, -0.503217, 0.0, 0.0, 1.6403e-07, 1.0, 0.0, 3.5191e-08, 1.0, 0.0, 1.79229e-07, 1.0, 3.72907e-07, 1.50238e-06, -1.0, -2.75235e-07, 1.1671e-06, -1.0, -2.43269e-06, 0.0, -1.0, -1.71392e-07, -1.0, 2.37074e-07, -1.79091e-07, -1.0, 2.19024e-07, 3.43991e-08, -1.0, 7.19549e-07, 1.20454e-07, -1.0, 0.0, 1.52683e-07, -1.0, 0.0, 3.54954e-07, -1.0, 0.0, -2.23047e-08, -1.0, 0.0, 3.91922e-07, -1.0, 0.0, -9.18991e-07, -1.0, 0.0, 0.999991, 0.0, -0.00419865, 0.999991, 0.0, -0.00419864, 0.999991, 0.0, -0.00419864, 0.0, 0.0, -1.0, 0.0, 0.0, -1.0, 0.0, 0.0, -1.0, -1.0, 0.0, 3.5284e-06, -1.0, 0.0, 3.52838e-06, -1.0, 0.0, 3.52838e-06, 0.000592486, 0.0, 1.0, 0.00059249, 0.0, 1.0, 0.00059249, 0.0, 1.0, 1.29917e-08, -1.0, -4.584e-10, 3.12081e-07, -1.0, 0.0, 1.91213e-07, -1.0, -1.4799e-10, 5.25383e-08, -1.0, 0.0, 7.2846e-08, -1.0, 0.0, 1.01401e-08, -1.0, 0.0, 8.68408e-09, -1.0, 0.0, 2.00332e-08, -1.0, 0.0, 2.665e-09, -1.0, 0.0, 0.0, -1.0, 0.0, 1.26999e-07, -1.0, 0.0, 5.90937e-08, -1.0, 0.0, -1.86144e-07, -1.0, 0.0, -1.27459e-07, -1.0, 0.0, -3.12987e-07, -1.0, 0.0, 1.40905e-06, 1.0, 0.0, 5.53287e-07, 1.0, 0.0, 1.40921e-07, 1.0, 0.0, -1.05025e-07, 1.0, 0.0, -1.28905e-07, 1.0, 0.0, -1.19406e-08, 1.0, 0.0, 6.08183e-07, 1.0, 0.0, 0.0, 1.0, 0.0, 7.73034e-07, 1.0, 0.0, 2.04536e-07, 1.0, 8.14818e-11, 3.2642e-07, 1.0, 0.0, 2.97366e-07, 1.0, 3.06448e-10, 1.36898e-05, 0.0, 1.0, 1.36898e-05, 0.0, 1.0, 1.36898e-05, 0.0, 1.0, 0.999998, 0.0, 0.00222847, 0.999998, 0.0, 0.00222845, 0.999998, 0.0, 0.00222845, -0.999988, 2.41231e-10, 0.00493532, -0.999988, 1.41147e-08, 0.00493533, -0.999988, 1.43559e-08, 0.00493533, -6.38976e-07, 1.0, 2.5405e-07, -5.24935e-07, 1.0, 2.90249e-07, -1.43932e-06, 1.0, 0.0, -2.73416e-07, 1.0, 0.0, 1.06727e-08, 1.0, 0.0, 1.99649e-07, 1.0, 0.0, -7.56258e-08, 1.0, 0.0, -8.86166e-08, 1.0, 0.0, -2.64661e-07, 1.0, 0.0, 0.0, 1.0, 0.0, 0.0, 1.0, 0.0, 0.0, 1.0, 0.0, -3.24529e-09, -2.92497e-09, 1.0, -3.24529e-09, -1.55393e-08, 1.0, -3.24529e-09, -1.84643e-08, 1.0, 1.0, 0.0, 0.0, 1.0, 0.0, 0.0, 1.0, 0.0, 0.0, 2.59624e-08, 7.49089e-08, -1.0, 2.59624e-08, 1.41001e-08, -1.0, 2.59624e-08, 0.0, -1.0, -1.0, 4.08696e-07, 0.0, -1.0, 4.08696e-07, 0.0, -1.0, 4.08696e-07, 0.0, 5.48466e-07, 1.0, 0.0, 3.41572e-07, 1.0, 0.0, 8.92982e-07, 1.0, 0.0, 1.0, -2.51114e-07, 2.74156e-07, 1.0, -1.32554e-07, 5.17947e-07, 1.0, 5.10634e-10, 7.91562e-07, 1.0, -3.81759e-07, 2.96966e-06, 1.0, 6.27848e-07, 0.0, 1.0, 1.08709e-08, 1.6098e-07, 1.0, -2.47272e-08, 0.0, 1.0, -2.88332e-07, 0.0, 1.0, -2.23037e-07, -2.31105e-07, 1.0, -9.74583e-08, -6.08911e-08, 1.0, -9.75765e-08, 1.13439e-07, 1.0, -9.77128e-08, 3.14519e-07, 1.0, -1.96712e-07, 5.5562e-07, 1.0, -2.82618e-07, 3.78926e-07, 1.0, -4.79014e-07, -2.50314e-08, 0.0, 0.00080408, 1.0, 0.0, 0.00080374, 1.0, 0.0, 0.000803721, 1.0, 0.0, -0.999979, 0.00651019, 0.0, -0.999979, 0.00651021, 0.0, -0.999979, 0.00651021, 1.49055e-06, 0.000999554, -1.0, 1.4887e-06, 0.00099956, -1.0, 1.4886e-06, 0.00099956, -1.0, -7.80408e-09, 0.999979, -0.00655963, -2.2116e-07, 0.999979, -0.00655966, -2.28964e-07, 0.999979, -0.00655966, 0.0, 0.00080268, 1.0, 0.0, 0.00080301, 1.0, 0.0, 0.000803029, 1.0, 0.0, -0.999979, 0.00651797, 0.0, -0.999979, 0.00651795, 0.0, -0.999979, 0.00651795, 7.06716e-07, 0.000999566, -1.0, 3.78368e-08, 0.000999644, -1.0, 0.0, 0.000999649, -1.0, 0.0, 0.999979, -0.00649014, 0.0, 0.999979, -0.00649015, 0.0, 0.999979, -0.00649015, 1.0, 1.46822e-07, 7.83005e-08, 1.0, 8.92073e-08, 4.76078e-08, 1.0, 2.36286e-07, 1.2596e-07, 1.0, 1.49172e-07, 2.58041e-07, 1.0, 8.91927e-08, 1.54288e-07, 1.0, 2.38469e-07, 4.1251e-07, -1.0, 1.2363e-08, -2.86252e-08, -1.0, 0.0, -9.3504e-07, -1.0, 1.09709e-07, 9.02419e-07, -1.0, 0.0, 0.0, -1.0, 0.0, 6.73696e-08, -1.0, 0.0, 1.18505e-06, -1.0, 6.35365e-08, 5.49495e-08, -1.0, 3.40876e-08, 1.02752e-07, -1.0, 1.78049e-10, 1.57795e-07, -1.0, 0.0, 1.66994e-07, -1.0, 0.0, 8.8147e-08, -1.0, 0.0, 0.0, -1.0, -1.2019e-07, 1.06335e-07, -1.0, -1.20084e-07, 1.52108e-07, -1.0, -1.19839e-07, 2.57789e-07, 2.52511e-06, 0.00111352, 0.999999, 1.51531e-07, 0.00111412, 0.999999, 0.0, 0.00111415, 0.999999, 0.0, 1.0, -2.67454e-05, 0.0, 1.0, -2.67454e-05, 0.0, 1.0, -2.67454e-05, 0.0, 0.00103943, -0.999999, 0.0, 0.00103913, -0.999999, 0.0, 0.00103911, -0.999999, 0.0, -1.0, -2.0984e-05, 0.0, -1.0, -2.09841e-05, 0.0, -1.0, -2.09841e-05, 2.67539e-06, 0.00111273, 0.999999, 2.67556e-06, 0.00111303, 0.999999, 2.67557e-06, 0.00111305, 0.999999, 0.0, 0.999978, -0.00669145, 0.0, 0.999978, -0.00669147, 0.0, 0.999978, -0.00669147, 1.33664e-06, 0.00103931, -0.999999, 1.33829e-06, 0.00103931, -0.999999, 1.33839e-06, 0.00103931, -1.0, 4.09138e-08, -0.999978, 0.00662357, 1.03736e-06, -0.999978, 0.00662356, 1.07827e-06, -0.999978, 0.00662356, -1.0, 0.0, 1.20063e-08, -1.0, 0.0, -1.20647e-07, -1.0, 0.0, 2.09652e-07, -1.0, 8.93922e-08, -2.57911e-07, -1.0, 1.45649e-07, -4.01655e-07, -1.0, 0.0, -2.95035e-08, 0.0, -1.0, -1.26061e-07, 0.0, 0.96126, 0.275642, 0.0, 0.96126, 0.275642, 0.0, 0.275638, -0.961262, 0.0, 0.275638, -0.961262, 0.0, 0.275637, -0.961262, 0.0, 0.275637, -0.961262, 0.0, 0.275637, -0.961262, 0.0, 0.117394, 0.993085, -1.0, 0.0, 0.0, -1.0, 0.0, 0.0, -1.0, 0.0, -1.59772e-06, 0.0, -0.275637, 0.961262, 0.0, 0.117394, 0.993085, 0.0, -0.9982, -0.0599733, 0.0, -0.96126, -0.275642, 1.0, 0.0, 0.0, 0.0, 0.518642, 0.854992, -1.0, -6.51497e-07, 0.0, 1.0, -5.01313e-06, -8.12295e-06, 1.0, 6.51498e-07, 8.87242e-07, 1.0, 6.0489e-07, -4.08746e-06, 0.0, 0.518654, 0.854984, 0.0, -0.96126, -0.275643, 0.0, -0.96126, -0.275643, 0.0, -0.961259, -0.275645, 0.0, -0.96126, -0.275641, 0.0, -0.998261, -0.05895, -7.41554e-07, 1.0, -2.16954e-07, 0.0, -1.0, 0.0, 0.0, -1.0, 0.0, -1.55463e-08, -1.70855e-09, -1.0, -1.57474e-08, 0.0, -1.0, -7.88201e-09, -4.76978e-09, -1.0, 0.0, 0.0, -1.0, 1.0, 0.0, 0.0, 0.0, 2.66438e-08, 1.0, 0.0, 2.67983e-08, 1.0, 0.0, 2.66754e-08, 1.0, -1.0, 0.0, 0.0, 0.0, -2.74895e-10, 1.0, 0.0, 0.0, 1.0, -2.53375e-09, 1.0, 0.0, 0.0, -1.0, 0.0, 0.0, -1.0, 0.0, 0.0, -1.0, 0.0, 0.0, -1.0, 0.0, 0.0, 0.0, -1.0, 1.0, 0.0, -0.000722947, 0.0, 0.0, 1.0, -0.99998, 0.0, -0.00639377, 0.0, 0.0, -1.0, 1.0, 0.0, -0.0007233, 0.0, 0.0, 1.0, -0.99998, 0.0, -0.00639369, -0.667615, 0.0, -0.744506, -0.663008, 0.0, -0.748613, -0.551448, 3.32118e-05, 0.834209, 0.656945, 0.0, -0.753939, 0.657141, 0.000105954, -0.753767, -1.21726e-06, -1.0, 0.0, -6.0452e-06, 1.0, 0.0, 0.0, 1.0, 0.0, -7.2895e-08, -1.0, 0.0, 0.621614, 0.0, 0.783323, -0.659875, -0.000349171, 0.751375, 0.664217, 6.50809e-06, 0.74754, 0.831469, 0.555571, 0.0, 0.555569, -0.83147, 0.0, -0.864159, -0.503219, 0.0, -0.943828, 0.330436, 0.0, 0.0, 2.07531e-07, 1.0, 0.0, 3.19413e-08, 1.0, 0.0, 0.0, 1.0, 0.0, 0.0, 1.0, 0.0, -4.55519e-07, 1.0, 2.67983e-06, -5.55552e-06, -1.0, 1.27306e-06, -1.05928e-06, -1.0, 9.80658e-07, 8.26293e-06, -1.0, -2.94898e-06, -1.82208e-06, -1.0, -2.61772e-06, 0.0, -1.0, 0.0, -0.992193, 0.124712, 0.0, -0.145253, -0.989395, 0.0, 0.992193, -0.124712, 0.0, 0.145253, 0.989395, -1.0, -0.000316765, 3.75414e-05, 1.0, 0.000316859, -4.12956e-05, 0.831468, 0.555572, 0.0, 0.555571, -0.831469, 0.0, -0.864158, -0.50322, 0.0, -0.943829, 0.330436, 0.0, 0.0, 2.07531e-07, 1.0, 0.0, 3.19413e-08, 1.0, 0.0, 0.0, 1.0, 0.0, 0.0, 1.0, 0.0, 0.0, 1.0, 2.56278e-06, 5.55556e-06, -1.0, -1.03553e-06, 1.05928e-06, -1.0, -1.84368e-06, 1.53034e-06, -1.0, 8.9145e-06, 8.19938e-06, -1.0, 0.0, 0.0, -1.0, -2.73932e-07, -1.0, -3.32875e-09, 0.0, -1.0, 0.0, 5.23665e-07, -1.0, 0.0, -1.42659e-06, -1.0, 0.0, 0.999991, 0.0, -0.00419865, 0.0, 0.0, -1.0, -1.0, 0.0, 3.5284e-06, 0.000592486, 0.0, 1.0, 2.27484e-07, -1.0, 0.0, 7.72274e-08, -1.0, -3.04983e-10, 0.0, -1.0, 0.0, 0.0, -1.0, 0.0, 0.0, -1.0, 0.0, 0.0, -1.0, 0.0, 0.0, -1.0, 0.0, 0.0, -1.0, 0.0, 0.0, -1.0, 0.0, 3.84002e-07, -1.0, 0.0, 0.0, -1.0, 0.0, 2.19709e-06, 1.0, 0.0, 2.07316e-07, 1.0, 0.0, 0.0, 1.0, 0.0, 0.0, 1.0, 0.0, 0.0, 1.0, 0.0, 1.26672e-07, 1.0, 0.0, 4.32657e-07, 1.0, 0.0, 2.04264e-07, 1.0, 2.52267e-10, 0.0, 1.0, 0.0, 1.36898e-05, 0.0, 1.0, 0.999997, 0.0, 0.00222847, -0.999988, 0.0, 0.00493532, 0.0, 1.0, 4.56877e-07, -1.10268e-06, 1.0, 0.0, -9.88827e-08, 1.0, 0.0, -2.95772e-07, 1.0, 0.0, 0.0, 1.0, 0.0, 0.0, 1.0, 0.0, -3.2453e-09, 0.0, 1.0, 1.0, 0.0, 0.0, 2.59624e-08, 8.9009e-08, -1.0, -1.0, 4.08696e-07, 0.0, 0.0, 1.0, 0.0, 1.0, -3.84442e-07, 0.0, 1.0, 0.0, 0.0, 1.0, -8.3359e-08, 8.96134e-08, 1.0, -7.10206e-08, 1.27289e-07, 1.0, -9.57331e-08, 0.0, 1.0, -1.01852e-08, 1.9256e-06, 1.0, 9.73222e-08, 0.0, 1.0, 9.73222e-08, 0.0, 1.0, 8.64405e-07, 4.76204e-06, 1.0, 2.85874e-07, 3.42631e-07, 1.0, 1.0556e-07, -1.6011e-06, 1.0, 1.48237e-07, 1.2071e-07, 1.0, -9.73228e-08, -2.60706e-07, 1.0, -6.36033e-10, 9.5892e-07, 0.0, 0.000804099, 1.0, 0.0, -0.999979, 0.00651019, 1.49066e-06, 0.000999554, -1.0, 0.0, 0.999979, -0.00655963, 0.0, 0.000802661, 1.0, 0.0, -0.999979, 0.00651797, 7.44552e-07, 0.000999562, -1.0, 0.0, 0.999979, -0.00649014, 1.0, -1.59419e-10, 0.0, 1.0, 0.0, 0.0, -1.0, 9.57498e-08, 0.0, -1.0, 8.3359e-08, -3.81511e-08, -1.0, 1.01136e-08, 0.0, -1.0, 5.25663e-08, -1.53758e-07, -1.0, 0.0, 0.0, -1.0, 0.0, -1.31727e-07, -1.0, 0.0, 0.0, -1.0, 0.0, -2.44426e-06, -1.0, 0.0, -1.71694e-07, -1.0, 0.0, 8.52129e-08, -1.0, 0.0, 0.0, -1.0, 9.73884e-08, 0.0, -1.0, 0.0, 2.55369e-07, -1.0, -1.20436e-07, 0.0, 2.67664e-06, 0.00111348, 0.999999, 0.0, 1.0, -2.67454e-05, 0.0, 0.00103945, -0.999999, 0.0, -1.0, -2.0984e-05, 2.67538e-06, 0.00111271, 0.999999, 0.0, 0.999978, -0.00669145, 1.33654e-06, 0.00103931, -1.0, 0.0, -0.999978, 0.00662357, -1.0, 0.0, -3.18575e-07, -1.0, 2.35171e-07, -6.30393e-07),
		FloatArray(-0.999997, -1.40052e-06, -0.00222364, 1.0, -0.999998, -6.24749e-07, -0.00222382, 1.0, -0.999998, -2.02205e-06, -0.00222349, 1.0, -6.59194e-07, 0.608039, -0.793907, 1.0, 0.0, 0.275643, -0.96126, 1.0, 0.0, 0.275641, -0.961261, 1.0, 0.0, -0.961262, -0.275637, 1.0, 0.0, -0.961262, -0.275638, 1.0, 0.0, -0.961261, -0.275638, 1.0, 1.0, 0.0, 0.0, 1.0, 1.0, 0.0, 0.0, 1.0, 1.0, 0.0, 0.0, 1.0, -1.10728e-06, -0.108775, 0.994066, 1.0, -6.95618e-09, -0.108774, 0.994066, 1.0, -6.76397e-08, -0.108766, 0.994067, 1.0, 0.0, 0.961262, 0.275638, 1.0, 0.0, 0.961262, 0.275637, 1.0, 0.0, 0.961262, 0.275638, 1.0, 1.0, 0.0, 0.0, 1.0, 1.0, 0.0, 0.0, 1.0, 1.0, 0.0, 0.0, 1.0, 0.0, -0.12492, 0.992167, 1.0, 0.0, 0.0287598, 0.999586, 1.0, 0.0, 0.0287598, 0.999586, 1.0, -4.77234e-08, -0.224728, 0.974422, 1.0, -8.14325e-08, -0.224726, 0.974422, 1.0, -8.51725e-08, -0.224725, 0.974422, 1.0, 0.0, 0.607091, -0.794632, 1.0, 0.0, 0.85499, -0.518645, 1.0, 2.03907e-10, 0.607699, -0.794167, 1.0, 4.98616e-07, 0.185245, -0.982692, 1.0, 5.01479e-06, 0.185254, -0.982691, 1.0, 6.23203e-06, 0.185257, -0.98269, 1.0, -5.81401e-06, 1.56602e-05, -1.0, 1.0, 4.34373e-07, 1.08138e-05, -1.0, 1.0, 1.84134e-06, 5.70316e-06, -1.0, 1.0, -3.01331e-06, 0.854984, -0.518655, 1.0, 1.90136e-06, 0.607086, -0.794636, 1.0, 0.0, -0.275643, 0.96126, 1.0, 0.0, -0.275643, 0.96126, 1.0, 0.0, -0.275643, 0.96126, 1.0, -1.27584e-07, 0.028755, 0.999587, 1.0, -1.53763e-07, 0.028755, 0.999586, 1.0, -1.33971e-08, -0.124922, 0.992167, 1.0, 1.0, 1.2834e-06, 6.69438e-08, 1.0, 1.0, 9.75795e-07, 1.76566e-07, 1.0, 1.0, 1.52012e-06, -1.74166e-08, 1.0, 5.89832e-06, 0.0, 1.0, 1.0, 1.444e-05, 0.0, 1.0, 1.0, 7.53342e-07, 0.0, 1.0, 1.0, -3.3495e-07, -1.0, 3.38645e-09, 1.0, -4.24393e-07, -1.0, 2.57336e-09, 1.0, -3.79873e-07, -1.0, 6.35805e-09, 1.0, 0.0, 0.0, -1.0, 1.0, 0.0, 0.0, -1.0, 1.0, 0.0, 0.0, -1.0, 1.0, 1.0, 0.0, 0.0, 1.0, 1.0, 0.0, 0.0, 1.0, 1.0, 0.0, 0.0, 1.0, -0.000167771, 0.000167763, -1.0, 1.0, 0.0, 0.0, -1.0, 1.0, 2.39988e-05, -2.39977e-05, -1.0, 1.0, 5.40503e-07, 1.0, 1.64019e-10, 1.0, 0.0, 1.0, 0.0, 1.0, 4.30977e-07, 1.0, 3.40414e-10, 1.0, 0.0, 0.0, -1.0, 1.0, -2.4e-05, 2.39988e-05, -1.0, 1.0, 0.000167779, -0.000167771, -1.0, 1.0, -2.97211e-07, 0.0, 1.0, 1.0, -5.73555e-06, 0.0, 1.0, 1.0, -5.23369e-06, 0.0, 1.0, 1.0, -1.5401e-06, 0.0, 1.0, 1.0, 2.52815e-05, 0.0, 1.0, 1.0, 2.90634e-05, 0.0, 1.0, 1.0, 1.84441e-05, 0.0, 1.0, 1.0, -2.41106e-05, 0.0, 1.0, 1.0, -3.01202e-05, 0.0, 1.0, 1.0, 0.0, -1.0, 0.0, 1.0, 0.0, -1.0, 0.0, 1.0, 0.0, -1.0, 0.0, 1.0, -0.00072329, 0.0, -1.0, 1.0, -0.000723049, 0.0, -1.0, 1.0, -0.000723392, 0.0, -1.0, 1.0, 9.27196e-07, 1.0, 0.0, 1.0, 0.0, 1.0, 0.0, 1.0, 0.00639308, 0.0, -0.99998, 1.0, 0.00639356, 0.0, -0.99998, 1.0, 0.00639288, 0.0, -0.99998, 1.0, 0.0, -1.0, 0.0, 1.0, -4.95516e-07, -1.0, 9.0625e-10, 1.0, -0.000723038, 0.0, -1.0, 1.0, -0.000723118, 0.0, -1.0, 1.0, -0.000722856, 0.0, -1.0, 1.0, 0.0, 1.0, 0.0, 1.0, 0.0, 1.0, 0.0, 1.0, 0.0, 1.0, 0.0, 1.0, 0.00639369, 0.0, -0.99998, 1.0, 0.00639369, 0.0, -0.99998, 1.0, 0.00639369, 0.0, -0.99998, 1.0, -0.000225325, 1.0, 0.000190384, 1.0, -0.000281963, 1.0, 0.000187161, 1.0, -0.000302818, 1.0, 0.000185975, 1.0, 0.000335757, 1.0, 0.000223107, 1.0, 0.000403472, 1.0, 0.000227192, 1.0, 0.000335273, 1.0, 0.000223076, 1.0, 0.00047134, -1.0, 0.00022593, 1.0, 0.000236777, -1.0, 0.000212324, 1.0, 0.000269246, -1.0, 0.000214391, 1.0, -0.999997, 4.27471e-08, 0.0023063, 1.0, -0.999997, 0.0, 0.00230587, 1.0, -0.999997, 1.13098e-06, 0.00230258, 1.0, 0.999999, 0.0, 0.00142383, 1.0, 0.999999, 0.0, 0.00142365, 1.0, 0.999999, 2.0631e-06, 0.00142912, 1.0, 0.999999, 0.0, 0.00142297, 1.0, 0.999999, 5.44072e-06, 0.00142573, 1.0, -0.999997, 7.15649e-08, 0.00231189, 1.0, -0.999997, 0.0, 0.00227543, 1.0, -0.000233943, -1.0, 0.000185633, 1.0, -0.000236106, -1.0, 0.000185463, 1.0, -0.000236122, -1.0, 0.000185461, 1.0, 0.751782, -6.29982e-12, 0.659411, 1.0, 0.751508, 8.80718e-12, 0.659725, 1.0, 0.751914, -5.44621e-13, 0.659261, 1.0, 0.747385, 8.50132e-12, -0.664391, 1.0, 0.747059, 1.6995e-11, -0.664757, 1.0, 0.746905, 2.24938e-11, -0.664931, 1.0, 0.865836, 0.500328, 0.0, 1.0, 0.330436, 0.943828, 0.0, 1.0, 0.330435, 0.943829, 0.0, 1.0, 0.986018, -0.166637, 3.42648e-08, 1.0, 0.865836, 0.500328, 1.44491e-06, 1.0, 0.555572, -0.831468, -6.85358e-08, 1.0, 0.986018, -0.166637, 7.26673e-08, 1.0, -0.201434, -0.979502, 0.0, 1.0, 0.555571, -0.831469, 0.0, 1.0, 0.555572, -0.831468, 0.0, 1.0, -0.83147, -0.555569, 0.0, 1.0, -0.201434, -0.979502, 0.0, 1.0, 0.979021, -0.203759, -3.42666e-08, 1.0, 0.83147, 0.555569, -2.96325e-06, 1.0, 0.83147, 0.555569, 0.0, 1.0, 0.503217, -0.86416, 6.85366e-08, 1.0, 0.979022, -0.203756, -1.25434e-07, 1.0, 0.330435, 0.943829, 0.0, 1.0, -0.503219, 0.864159, 0.0, 1.0, -0.503217, 0.86416, 0.0, 1.0, 1.0, -2.88964e-06, 2.72848e-13, 1.0, 1.0, 4.26929e-07, 3.56337e-14, 1.0, 1.0, -4.33054e-06, -3.68175e-13, 1.0, 1.0, -5.56025e-06, -1.07915e-06, 1.0, 1.0, 2.16749e-06, -1.69752e-07, 1.0, 1.0, -4.46919e-06, 6.95048e-07, 1.0, 0.0, 0.124712, 0.992193, 1.0, 0.0, 0.124712, 0.992193, 1.0, 0.0, 0.124712, 0.992193, 1.0, -8.6153e-07, -0.989395, 0.145253, 1.0, -6.37059e-07, -0.989395, 0.145253, 1.0, -4.58607e-07, -0.989394, 0.145253, 1.0, 0.0, -0.124712, -0.992193, 1.0, 0.0, -0.124712, -0.992193, 1.0, 0.0, -0.124712, -0.992193, 1.0, 5.44895e-07, 0.989394, -0.145253, 1.0, -7.79467e-08, 0.989395, -0.145253, 1.0, -5.73258e-07, 0.989395, -0.145253, 1.0, 8.15684e-06, -0.143331, -0.989675, 1.0, 4.66879e-06, -0.143333, -0.989675, 1.0, 4.57715e-06, -0.143333, -0.989675, 1.0, 4.61447e-06, -0.143455, -0.989657, 1.0, 5.64769e-06, -0.143457, -0.989657, 1.0, 5.67556e-06, -0.143457, -0.989657, 1.0, 0.865836, 0.500328, 0.0, 1.0, 0.330436, 0.943829, 0.0, 1.0, 0.330435, 0.943829, 0.0, 1.0, 0.986018, -0.16664, -6.85297e-08, 1.0, 0.865835, 0.500329, -2.88984e-06, 1.0, 0.55557, -0.83147, 1.37072e-07, 1.0, 0.986019, -0.166634, -1.45328e-07, 1.0, -0.201436, -0.979502, -6.85311e-08, 1.0, 0.555572, -0.831468, -5.92649e-06, 1.0, 0.55557, -0.83147, 0.0, 1.0, -0.831471, -0.555568, 0.0, 1.0, -0.201433, -0.979502, -2.89629e-06, 1.0, 0.979021, -0.203759, 0.0, 1.0, 0.831469, 0.555571, 0.0, 1.0, 0.831471, 0.555568, 0.0, 1.0, 0.503217, -0.86416, 0.0, 1.0, 0.979022, -0.203756, 0.0, 1.0, 0.330435, 0.943829, 1.37043e-07, 1.0, -0.50322, 0.864158, 5.07382e-06, 1.0, -0.503217, 0.86416, 0.0, 1.0, 1.0, 6.27092e-06, -1.02862e-12, 1.0, 1.0, 8.30374e-06, -2.92217e-13, 1.0, 1.0, 8.98585e-06, -1.61052e-12, 1.0, 1.0, 2.01818e-06, 3.7291e-07, 1.0, 1.0, -3.75634e-06, -2.75239e-07, 1.0, 1.0, 3.44999e-06, -2.43269e-06, 1.0, 1.0, -1.71392e-07, 5.89515e-07, -1.0, 1.0, -1.79091e-07, 5.94027e-07, -1.0, 1.0, 3.43994e-08, 4.68914e-07, -1.0, 1.0, 1.20455e-07, -9.96317e-08, -1.0, 1.0, 1.52683e-07, 1.81643e-07, -1.0, 1.0, 3.54954e-07, 1.94695e-06, -1.0, 1.0, -2.23047e-08, 9.28693e-07, -1.0, 1.0, 3.91922e-07, 5.96659e-07, -1.0, 1.0, -9.18991e-07, 1.60753e-06, -1.0, 1.0, 0.0, 0.0, -1.0, 1.0, 0.0, 0.0, -1.0, 1.0, 0.0, 0.0, -1.0, 1.0, 0.0, 0.0, -1.0, 1.0, 0.0, 0.0, -1.0, 1.0, 0.0, 0.0, -1.0, 1.0, 0.0, 0.0, -1.0, 1.0, 0.0, 0.0, -1.0, 1.0, 0.0, 0.0, -1.0, 1.0, 0.0, 0.0, -1.0, 1.0, 0.0, 0.0, -1.0, 1.0, 0.0, 0.0, -1.0, 1.0, 1.29917e-08, 1.57777e-07, -1.0, 1.0, 3.12081e-07, -1.57474e-08, -1.0, 1.0, 1.91213e-07, -6.00946e-09, -1.0, 1.0, 5.25383e-08, -4.56732e-07, -1.0, 1.0, 7.2846e-08, -6.33273e-07, -1.0, 1.0, 1.01401e-08, -4.91872e-08, -1.0, 1.0, 8.68408e-09, -3.38979e-07, -1.0, 1.0, 2.00332e-08, 6.71392e-08, -1.0, 1.0, 2.665e-09, -5.4756e-07, -1.0, 1.0, 0.0, 2.822e-07, -1.0, 1.0, 1.26999e-07, -1.82361e-07, -1.0, 1.0, 5.90937e-08, 1.11001e-06, -1.0, 1.0, -1.86144e-07, 2.02148e-06, -1.0, 1.0, -1.27459e-07, 1.6028e-06, -1.0, 1.0, -3.12988e-07, 2.92643e-06, -1.0, 1.0, -1.40905e-06, 4.82455e-07, 1.0, 1.0, -5.53287e-07, 1.31723e-06, 1.0, 1.0, -1.40921e-07, 2.47658e-06, 1.0, 1.0, 1.05025e-07, 1.92458e-07, 1.0, 1.0, 1.28905e-07, 2.36218e-07, 1.0, 1.0, 1.19406e-08, 7.54127e-08, 1.0, 1.0, -6.08183e-07, -5.65536e-07, 1.0, 1.0, 0.0, -1.07083e-08, 1.0, 1.0, -7.73034e-07, -7.67526e-07, 1.0, 1.0, -2.04536e-07, 1.47971e-07, 1.0, 1.0, -3.2642e-07, 4.19394e-08, 1.0, 1.0, -2.97366e-07, 2.11999e-07, 1.0, 1.0, 0.0, 0.0, -1.0, 1.0, 0.0, 0.0, -1.0, 1.0, 0.0, 0.0, -1.0, 1.0, 0.0, 0.0, -1.0, 1.0, 0.0, 0.0, -1.0, 1.0, 0.0, 0.0, -1.0, 1.0, 0.0, 0.0, -1.0, 1.0, 0.0, 0.0, -1.0, 1.0, 0.0, 0.0, -1.0, 1.0, 6.38976e-07, 8.89137e-07, 1.0, 1.0, 5.24935e-07, 1.01583e-06, 1.0, 1.0, 1.43932e-06, 0.0, 1.0, 1.0, 2.73416e-07, -3.92419e-07, 1.0, 1.0, -1.06727e-08, 1.32426e-07, 1.0, 1.0, -1.99649e-07, -8.47378e-07, 1.0, 1.0, 7.56258e-08, 9.41094e-07, 1.0, 1.0, 8.86166e-08, 1.25088e-06, 1.0, 1.0, 2.64661e-07, 5.44896e-06, 1.0, 1.0, 0.0, 0.0, 1.0, 1.0, 0.0, 0.0, 1.0, 1.0, 0.0, 0.0, 1.0, 1.0, 0.0, 0.0, -1.0, 1.0, 0.0, 0.0, -1.0, 1.0, 0.0, 0.0, -1.0, 1.0, 0.0, 0.0, -1.0, 1.0, 0.0, 0.0, -1.0, 1.0, 0.0, 0.0, -1.0, 1.0, -2.30217e-07, 2.59623e-08, 1.0, 1.0, 3.04933e-07, 2.59624e-08, 1.0, 1.0, 4.29021e-07, 2.59624e-08, 1.0, 1.0, 0.0, 0.0, -1.0, 1.0, 0.0, 0.0, -1.0, 1.0, 0.0, 0.0, -1.0, 1.0, -5.48466e-07, -2.54256e-07, 1.0, 1.0, -3.41572e-07, 7.90211e-07, 1.0, 1.0, -8.92982e-07, -1.99349e-06, 1.0, -2.51115e-07, -1.0, 1.72725e-07, 1.0, -1.32554e-07, -1.0, 2.59879e-07, 1.0, 5.10351e-10, -1.0, 3.57695e-07, 1.0, -3.8176e-07, -1.0, 4.10546e-07, 1.0, 6.27848e-07, -1.0, -1.61831e-06, 1.0, 1.08709e-08, -1.0, 1.61107e-08, 1.0, -2.47272e-08, -1.0, -2.73646e-07, 1.0, -2.88332e-07, -1.0, 9.58619e-08, 1.0, -2.23037e-07, -1.0, 6.77882e-08, 1.0, -9.74583e-08, -1.0, 6.56453e-08, 1.0, -9.75765e-08, -1.0, 8.96552e-08, 1.0, -9.77129e-08, -1.0, 1.17349e-07, 1.0, -1.96712e-07, -1.0, 2.22492e-07, 1.0, -2.82618e-07, -1.0, 3.4045e-07, 1.0, -4.79014e-07, -1.0, 6.10125e-07, 1.0, 1.0, 0.0, 0.0, -1.0, 1.0, 0.0, 0.0, -1.0, 1.0, 0.0, 0.0, -1.0, 1.0, 0.0, 0.0, -1.0, 1.0, 0.0, 0.0, -1.0, 1.0, 0.0, 0.0, -1.0, 1.0, 0.0, 0.0, -1.0, 1.0, 0.0, 0.0, -1.0, 1.0, 0.0, 0.0, -1.0, 1.0, 0.0, 0.0, -1.0, 1.0, 0.0, 0.0, -1.0, 1.0, 0.0, 0.0, -1.0, 1.0, 0.0, 0.0, -1.0, 1.0, 0.0, 0.0, -1.0, 1.0, 0.0, 0.0, -1.0, 1.0, 0.0, 0.0, -1.0, 1.0, 0.0, 0.0, -1.0, 1.0, 0.0, 0.0, -1.0, 1.0, 0.0, 0.0, -1.0, 1.0, 0.0, 0.0, -1.0, 1.0, 0.0, 0.0, -1.0, 1.0, 0.0, 0.0, -1.0, 1.0, 0.0, 0.0, -1.0, 1.0, 0.0, 0.0, -1.0, 1.46822e-07, -1.0, -1.29145e-06, 1.0, 8.92073e-08, -1.0, -7.85217e-07, 1.0, 2.36286e-07, -1.0, -2.07752e-06, 1.0, 1.49172e-07, -1.0, -3.55458e-07, 1.0, 8.91927e-08, -1.0, -3.24614e-07, 1.0, 2.3847e-07, -1.0, -4.01379e-07, 1.0, -1.2363e-08, -1.0, 1.96947e-08, -1.0, 6.96514e-13, -1.0, -7.44903e-07, -1.0, -1.09709e-07, -1.0, 1.77664e-07, -1.0, 0.0, -1.0, 4.6722e-08, -1.0, -1.29035e-15, -1.0, -1.91533e-08, -1.0, -1.15945e-13, -1.0, -9.78391e-08, -1.0, -6.35365e-08, -1.0, -1.48002e-09, -1.0, -3.40876e-08, -1.0, -1.02824e-07, -1.0, -1.78084e-10, -1.0, -2.19519e-07, -1.0, -4.17327e-14, -1.0, -2.49906e-07, -1.0, -2.99342e-14, -1.0, -3.39594e-07, -1.0, 0.0, -1.0, -4.39861e-07, -1.0, 1.2019e-07, -1.0, -1.17007e-07, -1.0, 1.20084e-07, -1.0, 3.57016e-08, -1.0, 1.19839e-07, -1.0, 3.8827e-07, -1.0, 1.0, 0.0, 0.0, -1.0, 1.0, 0.0, 0.0, -1.0, 1.0, 0.0, 0.0, -1.0, 1.0, 0.0, 0.0, -1.0, 1.0, 0.0, 0.0, -1.0, 1.0, 0.0, 0.0, -1.0, 1.0, 0.0, 0.0, -1.0, 1.0, 0.0, 0.0, -1.0, 1.0, 0.0, 0.0, -1.0, 1.0, 0.0, 0.0, -1.0, 1.0, 0.0, 0.0, -1.0, 1.0, 0.0, 0.0, -1.0, 0.999937, -0.0112494, 9.84234e-06, 1.0, 0.999937, -0.0112494, 9.84553e-06, 1.0, 1.0, 0.0, 0.0, -1.0, 1.0, 0.0, 0.0, -1.0, 1.0, 0.0, 0.0, -1.0, 1.0, 0.0, 0.0, -1.0, 1.0, 0.0, 0.0, -1.0, 1.0, 0.0, 0.0, -1.0, 1.0, 0.0, 0.0, -1.0, 1.0, -3.54421e-08, -1.15278e-05, -1.0, 1.0, 9.60978e-07, -1.15344e-05, -1.0, 1.0, 1.00189e-06, -1.15347e-05, -1.0, 2.18918e-15, -1.0, 1.82335e-07, -1.0, -3.57254e-14, -1.0, 2.96115e-07, -1.0, 2.68577e-15, -1.0, 1.28106e-08, -1.0, -8.93923e-08, -1.0, 1.40139e-07, -1.0, -1.45649e-07, -1.0, 5.04826e-08, -1.0, -8.3378e-15, -1.0, 2.82604e-07, -1.0, -0.999998, 2.80356e-10, -0.00222397, 1.0, 0.0, 0.275642, -0.96126, 1.0, 0.0, 0.275642, -0.96126, 1.0, 0.0, -0.961262, -0.275638, 1.0, 0.0, -0.961262, -0.275638, 1.0, 0.0, -0.961262, -0.275637, 1.0, 0.0, -0.961262, -0.275636, 1.0, 0.0, -0.961262, -0.275637, 1.0, 1.0, 0.0, 0.0, 1.0, 0.0, -0.108743, 0.99407, 1.0, 0.0, -0.10876, 0.994068, 1.0, -1.58824e-06, -0.108775, 0.994066, 1.0, 0.0, 0.961262, 0.275637, 1.0, 1.0, 0.0, 0.0, 1.0, 0.0, -0.0599733, 0.9982, 1.0, 0.0, -0.275642, 0.96126, 1.0, 0.0, -0.224731, 0.974421, 1.0, 0.0, 0.854991, -0.518642, 1.0, -1.20686e-07, 0.185244, -0.982693, 1.0, -8.12281e-06, 2.68198e-05, -1.0, 1.0, 8.87243e-07, -1.48058e-06, -1.0, 1.0, -4.08746e-06, 9.91026e-06, -1.0, 1.0, -7.94781e-06, 0.854984, -0.518654, 1.0, 0.0, -0.275643, 0.96126, 1.0, 0.0, -0.275643, 0.96126, 1.0, 0.0, -0.275645, 0.961259, 1.0, 0.0, -0.275641, 0.96126, 1.0, 0.0, -0.05895, 0.998261, 1.0, 1.0, 7.41554e-07, 2.60044e-07, 1.0, -1.00364e-07, 0.0, 1.0, 1.0, -1.92374e-06, 0.0, 1.0, 1.0, -4.39376e-07, -1.0, 1.70856e-09, 1.0, 0.0, -1.0, 0.0, 1.0, -4.33824e-07, -1.0, 4.76979e-09, 1.0, 0.0, -1.0, 0.0, 1.0, 0.0, 0.0, -1.0, 1.0, 1.0, 0.0, 0.0, 1.0, 1.0, 0.0, 0.0, 1.0, 1.0, 0.0, 0.0, 1.0, 0.0, 0.0, -1.0, 1.0, 5.90362e-07, 1.0, 2.74895e-10, 1.0, 0.0, 1.0, 0.0, 1.0, 0.0, 0.0, -1.0, 1.0, -5.3041e-06, 0.0, 1.0, 1.0, -2.74853e-07, 0.0, 1.0, 1.0, -5.30486e-06, 0.0, 1.0, 1.0, 2.44265e-05, 0.0, 1.0, 1.0, 0.0, -1.0, 0.0, 1.0, -0.000722947, 0.0, -1.0, 1.0, 0.0, 1.0, 0.0, 1.0, 0.00639377, 0.0, -0.99998, 1.0, 0.0, -1.0, 0.0, 1.0, -0.0007233, 0.0, -1.0, 1.0, 0.0, 1.0, 0.0, 1.0, 0.00639369, 0.0, -0.99998, 1.0, -0.000213043, 1.0, 0.000191041, 1.0, -0.000215598, 1.0, 0.000190944, 1.0, 0.000403957, 1.0, 0.000227221, 1.0, 0.000244321, -1.0, 0.000212889, 1.0, 0.000416769, -1.0, 0.000222777, 1.0, -0.999997, 1.21725e-06, 0.00230154, 1.0, 0.999999, 6.04519e-06, 0.0014311, 1.0, 0.999999, 0.0, 0.00142297, 1.0, -0.999997, 7.28948e-08, 0.00231249, 1.0, -0.000233926, -1.0, 0.000185634, 1.0, 0.751375, -1.04061e-11, 0.659875, 1.0, 0.74754, -3.87913e-13, -0.664217, 1.0, 0.555571, -0.831469, -3.03179e-06, 1.0, -0.83147, -0.555569, 0.0, 1.0, 0.503219, -0.864159, 2.90582e-06, 1.0, 0.330436, 0.943828, 0.0, 1.0, 1.0, 1.81259e-06, -3.7617e-13, 1.0, 1.0, 3.92752e-06, -1.2545e-13, 1.0, 1.0, 1.44466e-05, 0.0, 1.0, 1.0, 1.1334e-05, 0.0, 1.0, 1.0, 1.72294e-06, 7.84831e-13, 1.0, 1.0, 1.45122e-05, 2.67975e-06, 1.0, 1.0, 1.82512e-06, 1.27306e-06, 1.0, 1.0, -9.18038e-06, 9.80582e-07, 1.0, 1.0, -2.06751e-05, -2.94894e-06, 1.0, 1.0, 1.27367e-05, -2.61772e-06, 1.0, 0.0, 0.124712, 0.992193, 1.0, -1.03998e-06, -0.989395, 0.145253, 1.0, 0.0, -0.124712, -0.992193, 1.0, 1.04021e-06, 0.989395, -0.145253, 1.0, 8.24847e-06, -0.143331, -0.989675, 1.0, 4.58661e-06, -0.143455, -0.989657, 1.0, 0.555572, -0.831468, 6.06358e-06, 1.0, -0.831469, -0.555571, 0.0, 1.0, 0.50322, -0.864158, 0.0, 1.0, 0.330435, 0.943829, 4.97757e-06, 1.0, 1.0, -1.84187e-07, 3.82246e-14, 1.0, 1.0, -2.40009e-06, 7.66618e-14, 1.0, 1.0, -3.3489e-05, 0.0, 1.0, 1.0, 8.52846e-06, 0.0, 1.0, 1.0, 1.98142e-05, 0.0, 1.0, 1.0, -2.14725e-05, 2.56266e-06, 1.0, 1.0, -1.22184e-05, -1.03554e-06, 1.0, 1.0, 1.22211e-05, -1.84366e-06, 1.0, 1.0, -1.61095e-05, 8.91436e-06, 1.0, 1.0, 6.23493e-07, 0.0, 1.0, 1.0, -2.73932e-07, 6.49607e-07, -1.0, 1.0, 0.0, -1.15089e-06, -1.0, 1.0, 5.23665e-07, 4.77359e-07, -1.0, 1.0, -1.42659e-06, 1.98385e-06, -1.0, 1.0, 0.0, 0.0, -1.0, 1.0, 0.0, 0.0, -1.0, 1.0, 0.0, 0.0, -1.0, 1.0, 0.0, 0.0, -1.0, 1.0, 2.27484e-07, -1.76809e-07, -1.0, 1.0, 7.72274e-08, 3.14239e-08, -1.0, 1.0, 0.0, -3.51044e-07, -1.0, 1.0, 0.0, -2.15376e-07, -1.0, 1.0, 0.0, 3.00691e-07, -1.0, 1.0, 0.0, -6.48389e-07, -1.0, 1.0, 0.0, -6.57282e-07, -1.0, 1.0, 0.0, 6.36113e-07, -1.0, 1.0, 0.0, 2.2526e-07, -1.0, 1.0, 3.84002e-07, -1.21516e-06, -1.0, 1.0, 0.0, 6.93463e-07, -1.0, 1.0, -2.19709e-06, -2.68743e-08, 1.0, 1.0, -2.07316e-07, 2.98705e-06, 1.0, 1.0, 0.0, -1.49216e-06, 1.0, 1.0, 0.0, -5.34064e-07, 1.0, 1.0, 0.0, -1.56873e-07, 1.0, 1.0, -1.26672e-07, -4.95498e-07, 1.0, 1.0, -4.32657e-07, -6.72278e-07, 1.0, 1.0, -2.04264e-07, 2.34266e-07, 1.0, 1.0, 0.0, 2.1583e-07, 1.0, 1.0, 0.0, 0.0, -1.0, 1.0, 0.0, 0.0, -1.0, 1.0, 0.0, 0.0, -1.0, 1.0, -7.38964e-13, 1.599e-06, 1.0, 1.0, 1.10268e-06, -8.6321e-07, 1.0, 1.0, 9.88827e-08, 5.14712e-07, 1.0, 1.0, 2.95772e-07, 1.53958e-06, 1.0, 1.0, 0.0, -8.62334e-07, 1.0, 1.0, 0.0, 0.0, 1.0, 1.0, 0.0, 0.0, -1.0, 1.0, 0.0, 0.0, -1.0, 1.0, -3.54305e-07, 2.59623e-08, 1.0, 1.0, 0.0, 0.0, -1.0, 1.0, 0.0, 2.51458e-06, 1.0, -3.84442e-07, -1.0, 7.4716e-08, 1.0, 0.0, -1.0, 1.18594e-07, 1.0, -8.3359e-08, -1.0, 2.53476e-07, 1.0, -7.10206e-08, -1.0, 2.28304e-08, 1.0, -9.57331e-08, -1.0, 3.48865e-07, 1.0, -1.01846e-08, -1.0, -3.20777e-07, 1.0, 9.73222e-08, -1.0, -2.79808e-07, 1.0, 9.73222e-08, -1.0, -1.41051e-07, 1.0, 8.64404e-07, -1.0, 1.00229e-07, 1.0, 2.85874e-07, -1.0, -3.11582e-08, 1.0, 1.0556e-07, -1.0, 8.52594e-09, 1.0, 1.48237e-07, -1.0, -3.13539e-07, 1.0, -9.73228e-08, -1.0, 3.81255e-08, 1.0, -6.35988e-10, -1.0, -4.67438e-08, 1.0, 1.0, 0.0, 0.0, -1.0, 1.0, 0.0, 0.0, -1.0, 1.0, 0.0, 0.0, -1.0, 1.0, 0.0, 0.0, -1.0, 1.0, 0.0, 0.0, -1.0, 1.0, 0.0, 0.0, -1.0, 1.0, 0.0, 0.0, -1.0, 1.0, 0.0, 0.0, -1.0, -1.59419e-10, -1.0, 0.0, 1.0, 0.0, -1.0, -2.78747e-07, 1.0, -9.57498e-08, -1.0, 2.32063e-07, -1.0, -8.3359e-08, -1.0, 1.93643e-07, -1.0, -1.01136e-08, -1.0, 3.62381e-08, -1.0, -5.25663e-08, -1.0, 7.70095e-08, -1.0, 0.0, -1.0, 6.40645e-08, -1.0, 1.72257e-14, -1.0, -1.30768e-07, -1.0, 0.0, -1.0, -1.96767e-07, -1.0, -1.20309e-12, -1.0, 4.92211e-07, -1.0, -6.56558e-15, -1.0, 3.82399e-08, -1.0, -4.27473e-14, -1.0, -5.01653e-07, -1.0, 0.0, -1.0, 9.04069e-08, -1.0, -9.73884e-08, -1.0, 1.15017e-07, -1.0, -3.81468e-14, -1.0, -1.49379e-07, -1.0, 1.20436e-07, -1.0, -4.71759e-07, -1.0, 1.0, 0.0, 0.0, -1.0, 1.0, 0.0, 0.0, -1.0, 1.0, 0.0, 0.0, -1.0, 1.0, 0.0, 0.0, -1.0, 0.999937, -0.0112494, 9.84215e-06, 1.0, 1.0, 0.0, 0.0, -1.0, 1.0, 0.0, 0.0, -1.0, 1.0, 0.0, 0.0, -1.0, -1.48418e-13, -1.0, 4.6588e-07, -1.0, -2.35171e-07, -1.0, -9.21879e-08, -1.0),
		null, ; no Vertex Colors,
		Vector2Array(0.28021, 0.883322, 0.334945, 0.983161, 0.335384, 0.88347, 0.114753, 0.263236, 0.120697, 0.271536, 0.120697, 0.263236, 0.122494, 0.263236, 0.188456, 0.271536, 0.188456, 0.263236, 0.240457, 0.0784234, 0.231976, 0.0222232, 0.231976, 0.0784234, 0.315611, 0.163973, 0.34627, 0.159723, 0.333553, 0.104579, 0.189979, 0.0857627, 0.255941, 0.271536, 0.255941, 0.0857627, 0.216639, 0.078184, 0.224939, 0.0219836, 0.216639, 0.0219836, 0.0768398, 0.271536, 0.107779, 0.271536, 0.107779, 0.263236, 0.2985, 0.083919, 0.324841, 0.0232137, 0.294892, 0.0153935, 0.114753, 0.0689821, 0.109372, 0.0774629, 0.114753, 0.0774629, 0.284888, 0.0155367, 0.271588, 0.0761399, 0.27852, 0.083861, 0.303777, 0.162846, 0.284863, 0.0968834, 0.273537, 0.107459, 0.109372, 0.271536, 0.114753, 0.271536, 0.0708959, 0.263236, 0.0708959, 0.271536, 0.0768398, 0.263236, 0.107779, 0.0774628, 0.107779, 0.0689821, 0.0768398, 0.0689821, 0.340113, 0.883051, 0.39505, 0.98289, 0.394524, 0.883051, 0.860075, 0.149142, 0.864084, 0.149117, 0.864084, 0.100332, 0.921706, 0.271149, 0.921706, 0.222003, 0.85065, 0.223042, 0.875161, 0.0781118, 0.883179, 0.149168, 0.883179, 0.0781118, 0.848662, 0.271149, 0.831076, 0.0453915, 0.802062, 0.0453915, 0.892726, 0.149168, 0.884708, 0.0781118, 0.884708, 0.149168, 0.904924, 0.100028, 0.904924, 0.149168, 0.975981, 0.149168, 0.928875, 0.271149, 0.936893, 0.150163, 0.928875, 0.150163, 0.873632, 0.149168, 0.873632, 0.100028, 0.869623, 0.100025, 0.850528, 0.149165, 0.854537, 0.126107, 0.850528, 0.126133, 0.825914, 0.0443935, 0.829923, 0.0213645, 0.825914, 0.02139, 0.83833, 0.0443964, 0.848998, 0.0213645, 0.83833, 0.0213645, 0.820375, 0.0337279, 0.824384, 0.0443963, 0.824384, 0.0337279, 0.904924, 0.0769674, 0.894256, 0.100028, 0.818846, 0.0443963, 0.814837, 0.0337279, 0.814837, 0.0443963, 0.927054, 0.199, 0.921706, 0.199, 0.809298, 0.0390483, 0.813307, 0.0443963, 0.813307, 0.0390483, 0.8368, 0.0213645, 0.831452, 0.0443963, 0.8368, 0.0443963, 0.807769, 0.0443963, 0.80376, 0.0390483, 0.80376, 0.0443963, 0.0559899, 0.390723, 0.239914, 0.566431, 0.239715, 0.386083, 0.0561778, 0.570012, 0.239914, 0.566431, 0.0561837, 0.566557, 0.462844, 0.386469, 0.279116, 0.386607, 0.279111, 0.391012, 0.430423, 0.980224, 0.432281, 0.983479, 0.492321, 0.866436, 0.585676, 0.981551, 0.587501, 0.984221, 0.646678, 0.867402, 0.708571, 0.98068, 0.648242, 0.864269, 0.553318, 0.980077, 0.493747, 0.863577, 0.462649, 0.57025, 0.278915, 0.564799, 0.278921, 0.570398, 0.579517, 0.373469, 0.641861, 0.578165, 0.641858, 0.373469, 0.579517, 0.373469, 0.518059, 0.578165, 0.579512, 0.578165, 0.559289, 0.270642, 0.555138, 0.0568072, 0.555138, 0.270642, 0.567352, 0.270642, 0.559289, 0.0568072, 0.574628, 0.270642, 0.567352, 0.0568072, 0.584525, 0.270642, 0.576168, 0.0568072, 0.576168, 0.270642, 0.5917, 0.270642, 0.584525, 0.0568072, 0.60084, 0.0568072, 0.60913, 0.270642, 0.60913, 0.0568072, 0.593271, 0.0568072, 0.60084, 0.270642, 0.620339, 0.270642, 0.610375, 0.0568072, 0.610375, 0.270642, 0.625799, 0.251174, 0.642304, 0.262202, 0.633863, 0.24957, 0.664461, 0.25801, 0.651829, 0.24957, 0.647956, 0.269038, 0.932359, 0.377338, 0.928119, 0.58289, 0.932359, 0.58289, 0.812371, 0.377338, 0.705929, 0.582856, 0.812371, 0.58289, 0.926487, 0.377338, 0.922247, 0.58289, 0.926487, 0.58289, 0.920555, 0.377304, 0.814112, 0.58289, 0.920555, 0.582856, 0.94371, 0.586061, 0.947773, 0.478558, 0.9435, 0.478478, 0.943818, 0.475257, 0.948286, 0.367592, 0.944013, 0.367673, 0.42766, 0.270938, 0.423509, 0.0571026, 0.423509, 0.270938, 0.435724, 0.270938, 0.42766, 0.0571026, 0.443, 0.270938, 0.435724, 0.0571026, 0.452896, 0.270938, 0.444539, 0.0571026, 0.444539, 0.270938, 0.460072, 0.270938, 0.452896, 0.0571026, 0.480484, 0.0571026, 0.488774, 0.270938, 0.488774, 0.0571026, 0.472916, 0.0571026, 0.480484, 0.270938, 0.471606, 0.270938, 0.461643, 0.0571026, 0.461643, 0.270938, 0.494171, 0.25147, 0.510675, 0.262497, 0.502235, 0.249866, 0.532832, 0.258306, 0.5202, 0.249866, 0.516328, 0.269334, 0.690919, 0.653371, 0.649077, 0.631889, 0.666231, 0.631871, 0.618797, 0.653685, 0.605529, 0.631936, 0.618806, 0.631914, 0.635917, 0.60547, 0.649077, 0.631889, 0.618806, 0.631914, 0.61227, 0.742614, 0.612639, 0.827968, 0.612639, 0.827968, 0.612639, 0.827968, 0.658696, 0.827968, 0.658696, 0.827968, 0.658696, 0.827968, 0.658695, 0.742587, 0.658695, 0.742587, 0.658695, 0.742587, 0.61227, 0.742614, 0.61227, 0.742614, 0.612639, 0.827968, 0.524669, 0.827968, 0.524669, 0.809744, 0.747166, 0.702357, 0.747166, 0.742536, 0.658695, 0.742587, 0.747166, 0.809747, 0.747166, 0.827968, 0.658696, 0.827968, 0.648795, 0.653569, 0.524669, 0.702357, 0.618797, 0.653685, 0.648795, 0.653569, 0.618806, 0.631914, 0.649077, 0.631889, 0.880638, 0.634056, 0.867823, 0.609389, 0.850673, 0.63402, 0.756574, 0.700417, 0.756574, 0.737865, 0.893601, 0.737863, 0.946729, 0.831887, 0.979072, 0.831887, 0.979072, 0.801692, 0.756574, 0.801704, 0.756574, 0.831887, 0.893372, 0.831887, 0.893601, 0.737863, 0.946221, 0.737863, 0.946221, 0.737863, 0.893372, 0.831887, 0.893601, 0.737863, 0.893601, 0.737863, 0.946221, 0.737863, 0.946729, 0.831887, 0.946729, 0.831887, 0.880809, 0.652982, 0.897995, 0.634077, 0.880638, 0.634056, 0.756574, 0.700417, 0.880809, 0.652982, 0.8505, 0.652999, 0.814501, 0.653019, 0.850673, 0.63402, 0.837739, 0.634005, 0.946729, 0.831887, 0.893372, 0.826088, 0.893372, 0.831887, 0.946729, 0.831887, 0.893372, 0.831887, 0.893372, 0.831887, 0.946729, 0.826088, 0.946729, 0.831887, 0.946729, 0.831887, 0.857799, 0.881571, 0.953358, 0.905615, 0.953358, 0.881571, 0.893372, 0.831887, 0.893372, 0.826088, 0.893372, 0.826088, 0.849968, 0.652999, 0.880106, 0.634056, 0.850141, 0.63402, 0.267217, 0.713078, 0.332754, 0.793342, 0.333012, 0.713184, 0.412038, 0.713313, 0.438724, 0.713356, 0.503187, 0.665913, 0.332754, 0.793342, 0.267217, 0.793474, 0.267217, 0.831506, 0.438724, 0.713356, 0.503187, 0.792997, 0.503187, 0.713461, 0.35944, 0.713227, 0.411781, 0.793182, 0.412038, 0.713313, 0.412038, 0.713313, 0.438724, 0.713356, 0.438724, 0.713356, 0.411781, 0.793182, 0.412038, 0.713313, 0.412038, 0.713313, 0.438465, 0.793128, 0.411781, 0.793182, 0.411781, 0.793182, 0.438724, 0.713356, 0.438465, 0.793128, 0.438465, 0.793128, 0.333012, 0.713184, 0.35944, 0.713227, 0.35944, 0.713227, 0.332754, 0.793342, 0.333012, 0.713184, 0.333012, 0.713184, 0.359183, 0.793288, 0.332754, 0.793342, 0.332754, 0.793342, 0.35944, 0.713227, 0.359183, 0.793288, 0.359183, 0.793288, 0.412038, 0.713313, 0.438465, 0.793128, 0.438724, 0.713356, 0.333012, 0.713184, 0.359183, 0.793288, 0.35944, 0.713227, 0.250332, 0.664701, 0.185919, 0.712255, 0.159113, 0.712195, 0.250332, 0.813347, 0.250332, 0.830294, 0.185655, 0.791918, 0.250332, 0.7124, 0.185655, 0.791918, 0.185919, 0.712255, 0.0801463, 0.712017, 0.0143623, 0.792277, 0.0143623, 0.711869, 0.159113, 0.712195, 0.106552, 0.792084, 0.106553, 0.712077, 0.106553, 0.712077, 0.0801463, 0.712017, 0.0801463, 0.712017, 0.106552, 0.792084, 0.106552, 0.712077, 0.106552, 0.712077, 0.0801471, 0.792139, 0.106552, 0.792084, 0.106552, 0.792084, 0.0801463, 0.712017, 0.0801471, 0.792139, 0.0801471, 0.792139, 0.185919, 0.712255, 0.159113, 0.712195, 0.159113, 0.712195, 0.185655, 0.791918, 0.185919, 0.712255, 0.185919, 0.712255, 0.158852, 0.791974, 0.185655, 0.791918, 0.185655, 0.791918, 0.159113, 0.712195, 0.158852, 0.791974, 0.158852, 0.791974, 0.106553, 0.712077, 0.0801471, 0.792139, 0.0801463, 0.712017, 0.185919, 0.712255, 0.158852, 0.791974, 0.159113, 0.712195, 0.28021, 0.983045, 0.120697, 0.0774629, 0.120697, 0.0689821, 0.188456, 0.0774629, 0.188456, 0.0689821, 0.122494, 0.0774629, 0.122494, 0.0689821, 0.122494, 0.271536, 0.240457, 0.0222232, 0.327238, 0.0963453, 0.321144, 0.0952974, 0.309517, 0.162926, 0.189979, 0.271536, 0.224939, 0.078184, 0.0768398, 0.263236, 0.0708959, 0.271536, 0.305737, 0.0764835, 0.109372, 0.0689821, 0.254649, 0.0221429, 0.278919, 0.0985877, 0.266894, 0.16366, 0.297833, 0.16455, 0.109372, 0.263236, 0.0768398, 0.0774628, 0.0708959, 0.0774628, 0.0708959, 0.0689821, 0.0708959, 0.0689821, 0.0768398, 0.0774628, 0.339876, 0.98289, 0.856066, 0.100332, 0.856066, 0.149168, 0.921706, 0.150163, 0.85065, 0.150163, 0.85065, 0.197998, 0.85065, 0.271149, 0.875161, 0.149168, 0.727676, 0.0453915, 0.727676, 0.271149, 0.848662, 0.0453915, 0.892726, 0.0781118, 0.975981, 0.0281823, 0.904924, 0.0281823, 0.936893, 0.271149, 0.865614, 0.100022, 0.865614, 0.149168, 0.854537, 0.149168, 0.829923, 0.0443963, 0.848998, 0.0443964, 0.820375, 0.0443963, 0.894256, 0.0769674, 0.818846, 0.0337279, 0.927054, 0.222003, 0.809298, 0.0443963, 0.831452, 0.0213645, 0.807769, 0.0390483, 0.055985, 0.386209, 0.0561837, 0.566557, 0.239908, 0.56987, 0.278915, 0.564799, 0.462643, 0.56466, 0.492235, 0.860583, 0.646759, 0.861325, 0.706711, 0.983962, 0.551498, 0.982769, 0.462643, 0.56466, 0.579512, 0.578165, 0.518063, 0.373469, 0.574628, 0.0568072, 0.5917, 0.0568072, 0.593271, 0.270642, 0.620339, 0.0568072, 0.621648, 0.255915, 0.629672, 0.270642, 0.622103, 0.265878, 0.637962, 0.269377, 0.641139, 0.253844, 0.644261, 0.254334, 0.643806, 0.264298, 0.65602, 0.270642, 0.663296, 0.266368, 0.660119, 0.250835, 0.928119, 0.377338, 0.705929, 0.377304, 0.922247, 0.377338, 0.814112, 0.377338, 0.947982, 0.586142, 0.948091, 0.475176, 0.443, 0.0571026, 0.460072, 0.0571026, 0.472916, 0.270938, 0.471606, 0.0571026, 0.49002, 0.25621, 0.498043, 0.270938, 0.490475, 0.266174, 0.506334, 0.269673, 0.50951, 0.25414, 0.512632, 0.25463, 0.512177, 0.264593, 0.524392, 0.270938, 0.531667, 0.266663, 0.528491, 0.251131, 0.648795, 0.653569, 0.580293, 0.653914, 0.666231, 0.631871, 0.605529, 0.631936, 0.61227, 0.742614, 0.612639, 0.827968, 0.658696, 0.827968, 0.658695, 0.742587, 0.524669, 0.742664, 0.61227, 0.742614, 0.524669, 0.742664, 0.524669, 0.702357, 0.61227, 0.742614, 0.658695, 0.742587, 0.747166, 0.742536, 0.690919, 0.653371, 0.747166, 0.702357, 0.580293, 0.653914, 0.618797, 0.653685, 0.897995, 0.634077, 0.837739, 0.634005, 0.979072, 0.737862, 0.979072, 0.700417, 0.946221, 0.737863, 0.979072, 0.737862, 0.946221, 0.737863, 0.893601, 0.737863, 0.756574, 0.737865, 0.893601, 0.737863, 0.893372, 0.831887, 0.946221, 0.737863, 0.921072, 0.652959, 0.814501, 0.653019, 0.979072, 0.700417, 0.921072, 0.652959, 0.8505, 0.652999, 0.946729, 0.826088, 0.946729, 0.831887, 0.946729, 0.826088, 0.857799, 0.905615, 0.893372, 0.831887, 0.880278, 0.652982, 0.267217, 0.793474, 0.503187, 0.713461, 0.267217, 0.665913, 0.35944, 0.713227, 0.267217, 0.713078, 0.333012, 0.713184, 0.503187, 0.814559, 0.503187, 0.792997, 0.438465, 0.793128, 0.411781, 0.793182, 0.359183, 0.793288, 0.503187, 0.831506, 0.438465, 0.793128, 0.359183, 0.793288, 0.412038, 0.713313, 0.411781, 0.793182, 0.438465, 0.793128, 0.438724, 0.713356, 0.333012, 0.713184, 0.332754, 0.793342, 0.359183, 0.793288, 0.35944, 0.713227, 0.411781, 0.793182, 0.332754, 0.793342, 0.0143623, 0.711869, 0.0143623, 0.664701, 0.0801463, 0.712017, 0.106553, 0.712077, 0.250332, 0.7124, 0.0143623, 0.830294, 0.0143623, 0.792277, 0.0801471, 0.792139, 0.106552, 0.792084, 0.158852, 0.791974, 0.250332, 0.791782, 0.250332, 0.791782, 0.0801471, 0.792139, 0.158852, 0.791974, 0.106553, 0.712077, 0.106552, 0.792084, 0.0801471, 0.792139, 0.0801463, 0.712017, 0.185919, 0.712255, 0.185655, 0.791918, 0.158852, 0.791974, 0.159113, 0.712195, 0.106552, 0.792084, 0.185655, 0.791918),
		null, ; No UV2,
		null, ; No Bones,
		null, ; No Weights,
		IntArray(0, 2, 1, 3, 5, 4, 6, 8, 7, 9, 11, 10, 12, 14, 13, 15, 17, 16, 18, 20, 19, 21, 23, 22, 24, 26, 25, 27, 29, 28, 30, 32, 31, 33, 35, 34, 3, 37, 36, 38, 40, 39, 41, 43, 42, 44, 46, 45, 47, 49, 48, 50, 52, 51, 53, 55, 54, 56, 58, 57, 59, 61, 60, 62, 64, 63, 65, 67, 66, 68, 70, 69, 71, 73, 72, 74, 76, 75, 77, 79, 78, 80, 82, 81, 83, 62, 84, 85, 87, 86, 51, 89, 88, 90, 92, 91, 93, 95, 94, 96, 98, 97, 99, 101, 100, 102, 104, 103, 105, 107, 106, 108, 110, 109, 111, 113, 112, 113, 115, 114, 110, 117, 116, 118, 120, 119, 121, 123, 122, 124, 126, 125, 127, 129, 128, 130, 127, 131, 132, 130, 133, 134, 136, 135, 137, 134, 138, 139, 141, 140, 142, 139, 143, 144, 146, 145, 147, 149, 148, 150, 152, 151, 153, 155, 154, 156, 158, 157, 159, 161, 160, 162, 164, 163, 165, 167, 166, 168, 170, 169, 171, 173, 172, 174, 171, 175, 176, 174, 177, 178, 180, 179, 181, 178, 182, 183, 185, 184, 186, 183, 187, 188, 190, 189, 191, 193, 192, 194, 196, 195, 197, 199, 198, 200, 202, 201, 203, 205, 204, 206, 208, 207, 209, 211, 210, 212, 214, 213, 215, 217, 216, 218, 220, 219, 221, 223, 222, 224, 226, 225, 227, 229, 228, 230, 232, 231, 233, 235, 234, 236, 238, 237, 239, 241, 240, 242, 244, 243, 245, 247, 246, 248, 250, 249, 251, 253, 252, 254, 256, 255, 257, 259, 258, 260, 262, 261, 263, 265, 264, 266, 268, 267, 269, 271, 270, 272, 274, 273, 275, 277, 276, 278, 280, 279, 281, 283, 282, 284, 286, 285, 287, 289, 288, 290, 292, 291, 293, 295, 294, 296, 298, 297, 299, 301, 300, 302, 304, 303, 305, 307, 306, 308, 310, 309, 311, 313, 312, 314, 316, 315, 317, 319, 318, 320, 322, 321, 323, 325, 324, 326, 328, 327, 329, 331, 330, 332, 334, 333, 335, 337, 336, 338, 340, 339, 341, 343, 342, 344, 346, 345, 347, 349, 348, 350, 352, 351, 353, 355, 354, 356, 358, 357, 359, 361, 360, 362, 364, 363, 365, 367, 366, 368, 370, 369, 0, 1, 371, 5, 3, 372, 372, 29, 373, 3, 29, 372, 373, 29, 27, 3, 4, 37, 8, 6, 374, 374, 376, 375, 6, 376, 374, 375, 376, 377, 6, 7, 378, 9, 10, 379, 14, 381, 380, 381, 14, 382, 382, 14, 12, 15, 16, 383, 18, 19, 384, 23, 21, 385, 385, 21, 386, 24, 25, 387, 27, 28, 388, 30, 31, 389, 34, 35, 390, 35, 392, 391, 392, 35, 33, 3, 36, 393, 40, 395, 394, 394, 395, 396, 395, 40, 38, 397, 43, 398, 398, 43, 41, 44, 45, 399, 49, 47, 400, 400, 47, 401, 402, 404, 403, 52, 50, 405, 402, 89, 404, 404, 51, 52, 89, 51, 404, 53, 54, 406, 407, 58, 408, 408, 58, 56, 56, 57, 409, 59, 60, 410, 64, 62, 411, 411, 83, 412, 83, 411, 62, 65, 66, 413, 70, 415, 414, 415, 70, 68, 71, 72, 416, 74, 75, 417, 77, 78, 418, 80, 81, 419, 83, 84, 420, 85, 86, 421, 51, 88, 422, 90, 91, 423, 93, 94, 424, 96, 97, 425, 101, 99, 426, 99, 100, 427, 102, 103, 428, 429, 107, 430, 430, 107, 105, 117, 110, 431, 431, 110, 108, 115, 113, 432, 432, 113, 111, 113, 114, 433, 110, 116, 434, 118, 119, 435, 121, 122, 436, 124, 125, 437, 127, 128, 131, 130, 131, 133, 132, 133, 438, 134, 135, 138, 137, 138, 439, 139, 140, 143, 142, 143, 440, 144, 145, 441, 147, 443, 442, 442, 443, 444, 443, 148, 445, 147, 148, 443, 148, 149, 446, 447, 151, 448, 448, 151, 152, 152, 150, 449, 449, 150, 450, 150, 151, 451, 153, 154, 452, 156, 157, 453, 159, 160, 454, 162, 163, 455, 165, 166, 456, 168, 169, 457, 171, 172, 175, 174, 175, 177, 176, 177, 458, 178, 179, 182, 181, 182, 459, 183, 184, 187, 186, 187, 460, 188, 189, 461, 191, 463, 462, 462, 463, 464, 463, 192, 465, 191, 192, 463, 192, 193, 466, 467, 195, 468, 468, 195, 196, 196, 194, 469, 469, 194, 470, 194, 195, 471, 197, 198, 472, 200, 201, 473, 203, 204, 474, 205, 203, 475, 206, 207, 476, 209, 210, 477, 212, 213, 478, 215, 216, 479, 220, 481, 480, 481, 220, 218, 482, 484, 483, 483, 223, 221, 484, 223, 483, 226, 224, 485, 485, 224, 486, 227, 488, 487, 488, 227, 228, 228, 229, 489, 230, 231, 490, 491, 233, 234, 234, 235, 492, 493, 495, 494, 494, 238, 236, 495, 238, 494, 241, 497, 496, 497, 241, 239, 244, 242, 498, 498, 242, 499, 245, 246, 500, 248, 249, 501, 251, 252, 502, 254, 255, 503, 259, 257, 504, 257, 258, 505, 505, 258, 506, 260, 261, 507, 263, 264, 508, 266, 267, 509, 269, 270, 510, 272, 273, 511, 275, 276, 512, 278, 279, 513, 281, 282, 514, 515, 285, 286, 286, 517, 516, 284, 517, 286, 516, 519, 518, 519, 516, 517, 520, 522, 521, 523, 525, 524, 524, 289, 287, 520, 525, 522, 522, 525, 523, 289, 524, 525, 290, 291, 526, 293, 294, 527, 296, 297, 528, 299, 300, 529, 302, 303, 530, 305, 306, 531, 308, 309, 532, 311, 312, 533, 314, 315, 534, 317, 318, 535, 320, 321, 536, 323, 324, 537, 538, 540, 539, 539, 541, 326, 540, 541, 539, 326, 327, 542, 328, 326, 541, 543, 545, 544, 545, 543, 546, 546, 330, 547, 543, 330, 546, 547, 330, 331, 331, 329, 548, 332, 333, 549, 335, 336, 550, 338, 339, 551, 341, 342, 552, 344, 345, 553, 347, 348, 554, 350, 351, 555, 353, 354, 556, 356, 357, 557, 359, 360, 558, 362, 363, 559, 365, 366, 560, 368, 369, 561)
	],
	"morph_arrays":[]
}

[node type="Spatial" name="Scene"]

[node name="polySurface73" type="MeshInstance" parent="."]

mesh = SubResource(3)
visible = true
transform = Transform(0.01, 0.0, 0.0, 0.0, -1.62921e-09, -0.01, 0.0, 0.01, -1.62921e-09, 0.0, 0.0, 0.0)
